Frames,Theta,Y,X,Triggers,Markers
0,-179.5,7.43795054554939,24.0444026112556,0,
1,-179.499998004489,7.43795057494026,24.0444025985034,0,
2,-179.49998403591,7.43795078067636,24.044402509238,0,
3,-179.499946121197,7.43795133910291,24.0444022669462,0,
4,-179.499872287283,7.43795242656514,24.0444017951146,0,
5,-179.499750561099,7.43795421940828,24.0444010172302,0,
6,-179.499568969578,7.43795689397755,24.0443998567797,0,
7,-179.499315539655,7.43796062661818,24.0443982372499,0,
8,-179.49897829826,7.43796559367539,24.0443960821275,0,
9,-179.498545272327,7.43797197149441,24.0443933148993,0,
10,-179.498004488789,7.43797993642048,24.0443898590522,0,
11,-179.497343974578,7.43798966479881,24.0443856380729,0,
12,-179.496551756627,7.43800133297463,24.0443805754481,0,
13,-179.495615861869,7.43801511729317,24.0443745946647,0,
14,-179.494524317237,7.43803119409965,24.0443676192095,0,
15,-179.493265149662,7.43804973973931,24.0443595725691,0,
16,-179.491826386079,7.43807093055736,24.0443503782304,0,
17,-179.49019605342,7.43809494289904,24.0443399596802,0,
18,-179.488362178617,7.43812195310957,24.0443282404053,0,
19,-179.486312788603,7.43815213753417,24.0443151438924,0,
20,-179.484035910311,7.43818567251808,24.0443005936283,0,
21,-179.481519570673,7.43822273440652,24.0442845130998,0,
22,-179.478751796623,7.43826349954471,24.0442668257936,0,
23,-179.475720615094,7.43830814427789,24.0442474551966,0,
24,-179.472414053017,7.43835684495128,24.0442263247955,0,
25,-179.468820137326,7.43840977791011,24.0442033580772,0,
26,-179.464926894952,7.4384671194996,24.0441784785283,0,
27,-179.460722352831,7.43852904606498,24.0441516096357,0,
28,-179.456194537892,7.43859573395147,24.0441226748861,0,
29,-179.451331477071,7.43866735950431,24.0440915977664,0,
30,-179.446121197298,7.43874409906871,24.0440583017633,0,
31,-179.440551725508,7.43882612898991,24.0440227103635,0,
32,-179.434611088632,7.43891362561313,24.0439847470539,0,
33,-179.428287313604,7.43900676528361,24.0439443353213,0,
34,-179.421568427356,7.43910572434655,24.0439013986524,0,
35,-179.414442456821,7.4392106791472,24.0438558605339,0,
36,-179.406897428932,7.43932180603078,24.0438076444528,0,
37,-179.398921370621,7.43943928134251,24.0437566738957,0,
38,-179.390502308821,7.43956328142762,24.0437028723495,0,
39,-179.381628270465,7.43969398263134,24.0436461633009,0,
40,-179.372287282485,7.43983156129889,24.0435864702367,0,
41,-179.362467371815,7.4399761937755,24.0435237166436,0,
42,-179.352156565387,7.44012805640641,24.0434578260085,0,
43,-179.341342890133,7.44028732553682,24.0433887218182,0,
44,-179.330014372988,7.44045417751197,24.0433163275594,0,
45,-179.318159040882,7.4406287886771,24.0432405667189,0,
46,-179.305764920749,7.44081133537741,24.0431613627834,0,
47,-179.292820039522,7.44100199395815,24.0430786392398,0,
48,-179.279312424134,7.44120094076453,24.0429923195748,0,
49,-179.265230101517,7.44140835214178,24.0429023272753,0,
50,-179.250561098603,7.44162440443513,24.0428085858279,0,
51,-179.235293442327,7.44184927398981,24.0427110187196,0,
52,-179.219415159619,7.44208313715104,24.0426095494369,0,
53,-179.202914277414,7.44232617026405,24.0425041014668,0,
54,-179.185778822644,7.44257854967406,24.0423945982961,0,
55,-179.167996822241,7.44284045172631,24.0422809634114,0,
56,-179.149556303139,7.44311205276602,24.0421631202996,0,
57,-179.130445292269,7.44339352913841,24.0420409924474,0,
58,-179.110651816566,7.44368505718871,24.0419145033416,0,
59,-179.090163902961,7.44398681326215,24.0417835764691,0,
60,-179.068969578387,7.44429897370395,24.0416481353166,0,
61,-179.047056869777,7.44462171485934,24.0415081033708,0,
62,-179.024413804064,7.44495521307356,24.0413634041186,0,
63,-179.00102840818,7.44529964469181,24.0412139610467,0,
64,-178.976888709058,7.44565518605934,24.0410596976419,0,
65,-178.951982733632,7.44602201352136,24.040900537391,0,
66,-178.926298508833,7.44640030342311,24.0407364037807,0,
67,-178.899824061594,7.44679023210981,24.0405672202979,0,
68,-178.872547418849,7.44719197592668,24.0403929104294,0,
69,-178.844456607529,7.44760571121896,24.0402133976618,0,
70,-178.815539654568,7.44803161433186,24.040028605482,0,
71,-178.785784586898,7.44846986161062,24.0398384573768,0,
72,-178.755179431452,7.44892062940047,24.0396428768329,0,
73,-178.723712215163,7.44938409404662,24.0394417873372,0,
74,-178.691370964964,7.44986043189431,24.0392351123763,0,
75,-178.658143707786,7.45034981928876,24.0390227754371,0,
76,-178.624018470564,7.4508524325752,24.0388047000064,0,
77,-178.58898328023,7.45136844809886,24.038580809571,0,
78,-178.553026163716,7.45189804220496,24.0383510276175,0,
79,-178.516135147955,7.45244139123872,24.0381152776328,0,
80,-178.478298259879,7.45299867154538,24.0378734831038,0,
81,-178.439503526423,7.45357005947016,24.037625567517,0,
82,-178.399738974518,7.45415573135829,24.0373714543595,0,
83,-178.358992631097,7.454755863555,24.0371110671178,0,
84,-178.317252523093,7.4553706324055,24.0368443292788,0,
85,-178.274506677438,7.45600021425503,24.0365711643293,0,
86,-178.230743121066,7.45664478544882,24.0362914957561,0,
87,-178.185949880909,7.45730452233208,24.0360052470459,0,
88,-178.1401149839,7.45797960125006,24.0357123416855,0,
89,-178.093226456971,7.45867019854796,24.0354127031617,0,
90,-178.045272327055,7.45937649057103,24.0351062549613,0,
91,-177.996240621085,7.46009865366448,24.034792920571,0,
92,-177.946119365994,7.46083686417354,24.0344726234777,0,
93,-177.894896588715,7.46159129844345,24.034145287168,0,
94,-177.842560316179,7.46236213281942,24.0338108351289,0,
95,-177.789098575321,7.46314954364668,24.033469190847,0,
96,-177.734499393072,7.46395370727046,24.0331202778092,0,
97,-177.678750796365,7.46477480003599,24.0327640195022,0,
98,-177.621840812134,7.46561299828849,24.0324003394128,0,
99,-177.56375746731,7.46646847837319,24.0320291610278,0,
100,-177.504488788827,7.46734141663531,24.031650407834,0,
101,-177.444022803617,7.46823198942008,24.0312640033181,0,
102,-177.382347538614,7.46914037307274,24.030869870967,0,
103,-177.319451020749,7.47006674393849,24.0304679342673,0,
104,-177.255321276955,7.47101127836258,24.030058116706,0,
105,-177.189946334166,7.47197415269023,24.0296403417697,0,
106,-177.123314219314,7.47295554326666,24.0292145329452,0,
107,-177.055412959331,7.4739556264371,24.0287806137194,0,
108,-176.986230581151,7.47497457854678,24.028338507579,0,
109,-176.915755111706,7.47601257594092,24.0278881380107,0,
110,-176.843974577929,7.47706979496475,24.0274294285014,0,
111,-176.770877006752,7.4781464119635,24.0269623025379,0,
112,-176.696450425109,7.47924260328239,24.0264866836069,0,
113,-176.620682859932,7.48035854526665,24.0260024951952,0,
114,-176.543562338154,7.48149441426151,24.0255096607895,0,
115,-176.465076886707,7.48265038661219,24.0250081038768,0,
116,-176.385214532525,7.48382663866392,24.0244977479436,0,
117,-176.30396330254,7.48502334676192,24.0239785164769,0,
118,-176.221311223684,7.48624068725143,24.0234503329634,0,
119,-176.137246322891,7.48747883647767,24.0229131208898,0,
120,-176.051756627093,7.48873797078586,24.0223668037431,0,
121,-175.964830163223,7.49001826652123,24.0218113050098,0,
122,-175.876454958214,7.49131990002901,24.0212465481769,0,
123,-175.786619038998,7.49264304765443,24.020672456731,0,
124,-175.695310432509,7.49398788574271,24.0200889541591,0,
125,-175.602517165678,7.49535459063908,24.0194959639478,0,
126,-175.508227265439,7.49674333868876,24.0188934095839,0,
127,-175.412428758724,7.49815430623698,24.0182812145542,0,
128,-175.315109672466,7.49958766962897,24.0176593023455,0,
129,-175.216258033598,7.50104360520995,24.0170275964447,0,
130,-175.115861869053,7.50252228932515,24.0163860203383,0,
131,-175.013909205763,7.5040238983198,24.0157344975133,0,
132,-174.910388070661,7.50554860853913,24.0150729514564,0,
133,-174.80528649068,7.50709659632835,24.0144013056544,0,
134,-174.698592492752,7.5086680380327,24.013719483594,0,
135,-174.59029410381,7.51026310999741,24.0130274087621,0,
136,-174.480379350788,7.51188198856769,24.0123250046455,0,
137,-174.368836260617,7.51352485008878,24.0116121947308,0,
138,-174.25565286023,7.5151918709059,24.0108889025049,0,
139,-174.140817176561,7.51688322736428,24.0101550514546,0,
140,-174.024317236541,7.51859909580915,24.0094105650667,0,
141,-173.906141067104,7.52033965258573,24.0086553668278,0,
142,-173.786276695183,7.52210507403925,24.0078893802249,0,
143,-173.664712147709,7.52389553651493,24.0071125287447,0,
144,-173.541435451617,7.52571121635801,24.0063247358739,0,
145,-173.416434633838,7.5275522899137,24.0055259250994,0,
146,-173.289697721305,7.52941893352724,24.0047160199078,0,
147,-173.161212740951,7.53131132354384,24.0038949437861,0,
148,-173.030967719709,7.53322963630875,24.003062620221,0,
149,-172.898950684512,7.53517404816718,24.0022189726992,0,
150,-172.765149662291,7.53714473546437,24.0013639247076,0,
151,-172.629552679981,7.53914187454552,24.0004973997329,0,
152,-172.492147764513,7.54116564175589,23.9996193212619,0,
153,-172.352922942821,7.54321621344068,23.9987296127814,0,
154,-172.211866241836,7.54529376594513,23.9978281977781,0,
155,-172.068965688493,7.54739847561446,23.9969149997389,0,
156,-171.924209309723,7.54953051879391,23.9959899421505,0,
157,-171.77758513246,7.55169007182869,23.9950529484997,0,
158,-171.629081183636,7.55387731106403,23.9941039422732,0,
159,-171.478685490183,7.55609241284516,23.993142846958,0,
160,-171.326386079035,7.55833555351731,23.9921695860406,0,
161,-171.172170977125,7.5606069094257,23.991184083008,0,
162,-171.016028211384,7.56290665691556,23.9901862613469,0,
163,-170.857945808746,7.56523497233212,23.989176044544,0,
164,-170.697911796144,7.5675920320206,23.9881533560862,0,
165,-170.535914200509,7.56997801232622,23.9871181194602,0,
166,-170.371941048776,7.57239308959422,23.9860702581529,0,
167,-170.205980367877,7.57483744016982,23.9850096956509,0,
168,-170.038020184743,7.57731124039826,23.9839363554411,0,
169,-169.868048526309,7.57981466662474,23.9828501610103,0,
170,-169.696053419507,7.58234789519451,23.9817510358451,0,
171,-169.522022891269,7.58491110245278,23.9806389034325,0,
172,-169.345944968529,7.58750446474479,23.9795136872592,0,
173,-169.167807678219,7.59012815841576,23.978375310812,0,
174,-168.987599047272,7.59278235981091,23.9772236975776,0,
175,-168.80530710262,7.59546724527548,23.9760587710428,0,
176,-168.620919871196,7.59818299115469,23.9748804546944,0,
177,-168.434425379933,7.60092977379377,23.9736886720193,0,
178,-168.245811655765,7.60370776953794,23.9724833465041,0,
179,-168.055066725622,7.60651715473243,23.9712644016356,0,
180,-167.862178616439,7.60935810572247,23.9700317609007,0,
181,-167.667135355148,7.61223079885327,23.968785347786,0,
182,-167.469924968681,7.61513541047008,23.9675250857785,0,
183,-167.270535483972,7.61807211691812,23.9662508983648,0,
184,-167.068954927953,7.6210410945426,23.9649627090317,0,
185,-166.865171327557,7.62404251968877,23.9636604412661,0,
186,-166.659172709716,7.62707656870184,23.9623440185547,0,
187,-166.450947101364,7.63014341792704,23.9610133643843,0,
188,-166.240482529433,7.6332432437096,23.9596684022416,0,
189,-166.027767020855,7.63637622239475,23.9583090556135,0,
190,-165.812788602564,7.6395425303277,23.9569352479866,0,
191,-165.595535301493,7.6427423438537,23.9555469028479,0,
192,-165.375995144573,7.64597583931796,23.9541439436841,0,
193,-165.154156158738,7.64924319306571,23.9527262939819,0,
194,-164.930006370921,7.65254458144218,23.9512938772282,0,
195,-164.703533808053,7.65588018079259,23.9498466169096,0,
196,-164.474726497069,7.65925016746217,23.9483844365131,0,
197,-164.243572464901,7.66265471779615,23.9469072595254,0,
198,-164.01005973848,7.66609400813975,23.9454150094332,0,
199,-163.774176344741,7.66956821483821,23.9439076097233,0,
200,-163.535910310616,7.67307751423674,23.9423849838826,0,
201,-163.295249663037,7.67662208268057,23.9408470553977,0,
202,-163.052182428938,7.68020209651493,23.9392937477555,0,
203,-162.806696635251,7.68381773208505,23.9377249844428,0,
204,-162.558780308908,7.68746916573615,23.9361406889463,0,
205,-162.308421476843,7.69115657381346,23.9345407847528,0,
206,-162.055608165988,7.69488013266221,23.9329251953491,0,
207,-161.800328403277,7.69864001862762,23.931293844222,0,
208,-161.542570215641,7.70243640805491,23.9296466548582,0,
209,-161.282321630013,7.70626947728932,23.9279835507446,0,
210,-161.019570673327,7.71013940267608,23.9263044553679,0,
211,-160.754305372514,7.7140463605604,23.9246092922148,0,
212,-160.486513754508,7.71799052728752,23.9228979847723,0,
213,-160.216183846242,7.72197207920266,23.9211704565269,0,
214,-159.943303674648,7.72599119265104,23.9194266309656,0,
215,-159.667861266658,7.7300480439779,23.9176664315751,0,
216,-159.389844649207,7.73414280952846,23.9158897818422,0,
217,-159.109241849225,7.73827566564795,23.9140966052537,0,
218,-158.826040893647,7.7424467886816,23.9122868252963,0,
219,-158.540229809404,7.74665635497462,23.9104603654568,0,
220,-158.25179662343,7.75090454087225,23.9086171492221,0,
221,-157.960729362657,7.75519152271971,23.9067571000788,0,
222,-157.667016054018,7.75951747686223,23.9048801415138,0,
223,-157.370644724446,7.76388257964504,23.9029861970138,0,
224,-157.071603400873,7.76828700741337,23.9010751900656,0,
225,-156.769880110232,7.77273093651243,23.8991470441561,0,
226,-156.465462879457,7.77721454328745,23.8972016827719,0,
227,-156.158339735479,7.78173800408368,23.8952390293999,0,
228,-155.848498705231,7.78630149524631,23.8932590075268,0,
229,-155.535927815647,7.7909051931206,23.8912615406395,0,
230,-155.220615093658,7.79554927405176,23.8892465522246,0,
231,-154.902548566198,7.80023391438501,23.887213965769,0,
232,-154.581716260199,7.80495929046559,23.8851637047595,0,
233,-154.258106202594,7.80972557863872,23.8830956926828,0,
234,-153.931706420316,7.81453295524963,23.8810098530257,0,
235,-153.602504940298,7.81938159664355,23.8789061092751,0,
236,-153.270489789472,7.8242716791657,23.8767843849176,0,
237,-152.935648994771,7.8292033791613,23.87464460344,0,
238,-152.597970583127,7.83417687297559,23.8724866883292,0,
239,-152.257442581474,7.83919233695379,23.8703105630719,0,
240,-151.914053016744,7.84424994744112,23.8681161511549,0,
241,-151.56778991587,7.84934988078282,23.865903376065,0,
242,-151.218641305785,7.85449231332411,23.8636721612889,0,
243,-150.866595213421,7.85967742141022,23.8614224303135,0,
244,-150.511639665711,7.86490538138637,23.8591541066255,0,
245,-150.15376593195,7.87017636959779,23.8568671137116,0,
246,-149.792983930426,7.87549056238971,23.8545613750588,0,
247,-149.429310233718,7.88084813610734,23.8522368141536,0,
248,-149.062761422644,7.88624926709593,23.8498933544831,0,
249,-148.69335407802,7.8916941317007,23.8475309195338,0,
250,-148.321104780665,7.89718290626686,23.8451494327926,0,
251,-147.946030111393,7.90271576713966,23.8427488177463,0,
252,-147.568146651024,7.90829289066431,23.8403289978816,0,
253,-147.187470980373,7.91391445318604,23.8378898966853,0,
254,-146.804019680259,7.91958063105008,23.8354314376443,0,
255,-146.417809331496,7.92529160060166,23.8329535442452,0,
256,-146.028856514904,7.93104753818599,23.8304561399749,0,
257,-145.637177811299,7.93684862014832,23.8279391483202,0,
258,-145.242789801497,7.94269502283386,23.8254024927677,0,
259,-144.845709066316,7.94858692258784,23.8228460968044,0,
260,-144.445952186574,7.95452449575549,23.820269883917,0,
261,-144.043535743086,7.96050791868203,23.8176737775922,0,
262,-143.63847631667,7.96653736771269,23.8150577013168,0,
263,-143.230790488143,7.9726130191927,23.8124215785777,0,
264,-142.820494838322,7.97873504946728,23.8097653328616,0,
265,-142.407605948025,7.98490363488167,23.8070888876553,0,
266,-141.992140398067,7.99111895178108,23.8043921664455,0,
267,-141.574114769267,7.99738117651074,23.8016750927191,0,
268,-141.15354564244,8.00369048541588,23.7989375899627,0,
269,-140.730449598405,8.01004705484173,23.7961795816633,0,
270,-140.304843217978,8.01645106113351,23.7934009913076,0,
271,-139.876743081976,8.02290268063645,23.7906017423823,0,
272,-139.446165771217,8.02940208969578,23.7877817583742,0,
273,-139.013127866516,8.03594946465672,23.7849409627702,0,
274,-138.577645948692,8.0425449818645,23.782079279057,0,
275,-138.139736598562,8.04918881766434,23.7791966307213,0,
276,-137.699416396942,8.05588114840148,23.77629294125,0,
277,-137.256701924649,8.06262215042113,23.7733681341298,0,
278,-136.8116097625,8.06941200006852,23.7704221328476,0,
279,-136.364156491313,8.07625087368889,23.76745486089,0,
280,-135.914358691905,8.08313894762746,23.7644662417439,0,
281,-135.462232945091,8.09007639822945,23.761456198896,0,
282,-135.007795831691,8.09706340184009,23.7584246558332,0,
283,-134.55106393252,8.10410013480461,23.7553715360422,0,
284,-134.092053828395,8.11118677346824,23.7522967630098,0,
285,-133.630782100135,8.11832349417619,23.7492002602228,0,
286,-133.167265328554,8.1255104732737,23.7460819511679,0,
287,-132.701520094472,8.13274788710599,23.7429417593319,0,
288,-132.233562978704,8.1400359120183,23.7397796082016,0,
289,-131.763410562068,8.14737472435584,23.7365954212639,0,
290,-131.29107942538,8.15476450046384,23.7333891220054,0,
291,-130.816586149459,8.16220541668753,23.7301606339129,0,
292,-130.33994731512,8.16969764937214,23.7269098804733,0,
293,-129.861179503181,8.17724137486289,23.7236367851732,0,
294,-129.380299294458,8.18483676950501,23.7203412714996,0,
295,-128.89732326977,8.19248400964373,23.7170232629391,0,
296,-128.412268009933,8.20018327162427,23.7136826829786,0,
297,-127.925150095763,8.20793473179186,23.7103194551048,0,
298,-127.435986108078,8.21573856649172,23.7069335028045,0,
299,-126.944792627696,8.22359495206908,23.7035247495644,0,
300,-126.451586235432,8.23150406486917,23.7000931188715,0,
301,-125.956383512105,8.23946608123722,23.6966385342123,0,
302,-125.45920103853,8.24748117751844,23.6931609190738,0,
303,-124.960055395526,8.25554953005808,23.6896601969427,0,
304,-124.458963163908,8.26367131520135,23.6861362913058,0,
305,-123.955940924495,8.27184670929348,23.6825891256498,0,
306,-123.451005258103,8.28007588867969,23.6790186234616,0,
307,-122.944172745549,8.28835902970522,23.6754247082279,0,
308,-122.435459967651,8.2966963087153,23.6718073034355,0,
309,-121.924883505224,8.30508790205513,23.6681663325712,0,
310,-121.412459939087,8.31353398606997,23.6645017191217,0,
311,-120.898205850056,8.32203473710502,23.6608133865738,0,
312,-120.382137818949,8.33059033150551,23.6571012584144,0,
313,-119.864272426582,8.33920094561668,23.6533652581302,0,
314,-119.344626253772,8.34786675578375,23.6496053092079,0,
315,-118.823215881337,8.35658793835195,23.6458213351344,0,
316,-118.300057890093,8.36536466966649,23.6420132593964,0,
317,-117.775168860858,8.37419712607262,23.6381810054808,0,
318,-117.248565374448,8.38308548391555,23.6343244968742,0,
319,-116.72026401168,8.39202991954052,23.6304436570635,0,
320,-116.190281353372,8.40103060929274,23.6265384095355,0,
321,-115.658633980341,8.41008772951745,23.6226086777769,0,
322,-115.125338473403,8.41920145655987,23.6186543852745,0,
323,-114.590411413376,8.42837196676522,23.614675455515,0,
324,-114.053869381077,8.43759943647874,23.6106718119854,0,
325,-113.515728957322,8.44688404204565,23.6066433781723,0,
326,-112.976006722929,8.45622595981119,23.6025900775625,0,
327,-112.434719258715,8.46562536612056,23.5985118336429,0,
328,-111.891883145496,8.475082437319,23.5944085699001,0,
329,-111.347514964091,8.48459734975174,23.590280209821,0,
330,-110.801631295315,8.49417027976401,23.5861266768923,0,
331,-110.254248719986,8.50380140370103,23.5819478946009,0,
332,-109.70538381892,8.51349089790802,23.5777437864334,0,
333,-109.155053172936,8.52323893873021,23.5735142758768,0,
334,-108.603273362849,8.53304570251284,23.5692592864177,0,
335,-108.050060969478,8.54291136560112,23.564978741543,0,
336,-107.495432573638,8.55283610434028,23.5606725647393,0,
337,-106.939404756148,8.56282009507555,23.5563406794936,0,
338,-106.381994097824,8.57286351415216,23.5519830092926,0,
339,-105.823217179482,8.58296653791533,23.547599477623,0,
340,-105.263090581941,8.59312934271029,23.5431900079717,0,
341,-104.701630886017,8.60335210488227,23.5387545238253,0,
342,-104.138854672527,8.61363500077648,23.5342929486708,0,
343,-103.574778522288,8.62397820673817,23.5298052059949,0,
344,-103.009419016117,8.63438189911255,23.5252912192843,0,
345,-102.442792734831,8.64484625424485,23.5207509120259,0,
346,-101.874916259248,8.6553714484803,23.5161842077063,0,
347,-101.305806170184,8.66595765816412,23.5115910298125,0,
348,-100.735479048457,8.67660505964154,23.5069713018312,0,
349,-100.163951474882,8.6873138292578,23.5023249472491,0,
350,-99.5912400302781,8.6980841433581,23.497651889553,0,
351,-99.0173612954615,8.70891617828769,23.4929520522298,0,
352,-98.4423318512492,8.71981011039178,23.4882253587661,0,
353,-97.8661682784584,8.7307661160156,23.4834717326488,0,
354,-97.2888871579061,8.74178437150439,23.4786910973647,0,
355,-96.7105050704092,8.75286505320337,23.4738833764005,0,
356,-96.1310385967849,8.76400833745775,23.469048493243,0,
357,-95.5505043178501,8.77521440061278,23.464186371379,0,
358,-94.9689188144219,8.78648341901367,23.4592969342953,0,
359,-94.3862986673172,8.79781556900565,23.4543801054786,0,
360,-93.8026604573533,8.80921102693395,23.4494358084158,0,
361,-93.2180207653469,8.8206699691438,23.4444639665936,0,
362,-92.6323961721153,8.83219257198042,23.4394645034987,0,
363,-92.0458032584753,8.84377901178904,23.4344373426181,0,
364,-91.458258605244,8.85542946491489,23.4293824074383,0,
365,-90.8697787932385,8.86714410770318,23.4242996214463,0,
366,-90.2803804032758,8.87892311649915,23.4191889081288,0,
367,-89.6900800161729,8.89076666764803,23.4140501909726,0,
368,-89.0988942127469,8.90267493749504,23.4088833934645,0,
369,-88.5068395738147,8.91464810238541,23.4036884390912,0,
370,-87.9139326801935,8.92668633866436,23.3984652513395,0,
371,-87.3201901127001,8.93878982267712,23.3932137536963,0,
372,-86.7256284521517,8.95095873076892,23.3879338696482,0,
373,-86.1302642793652,8.96319323928499,23.382625522682,0,
374,-85.5341141751578,8.97549352457054,23.3772886362847,0,
375,-84.9371947203463,8.98785974550973,23.3719231339428,0,
376,-84.3395224957479,9.00029181631697,23.3665289391433,0,
377,-83.7411140821797,9.01278947100402,23.3611059753728,0,
378,-83.1419860604585,9.0253524393942,23.3556541661182,0,
379,-82.5421550114014,9.03798045131079,23.3501734348662,0,
380,-81.9416375158255,9.05067323657709,23.3446637051036,0,
381,-81.3404501545478,9.06343052501641,23.3391249003173,0,
382,-80.7386095083853,9.07625204645206,23.3335569439939,0,
383,-80.1361321581551,9.08913753070732,23.3279597596203,0,
384,-79.5330346846741,9.1020867076055,23.3223332706832,0,
385,-78.9293336687594,9.11509930696991,23.3166774006694,0,
386,-78.3250456912281,9.12817505862384,23.3109920730658,0,
387,-77.7201873328971,9.1413136923906,23.305277211359,0,
388,-77.1147751745835,9.15451493809348,23.2995327390358,0,
389,-76.5088257971043,9.16777852555579,23.2937585795831,0,
390,-75.9023557812765,9.18110418460083,23.2879546564876,0,
391,-75.2953817079171,9.19449164505189,23.2821208932361,0,
392,-74.6879201578433,9.20794063673229,23.2762572133154,0,
393,-74.079987711872,9.22145088946532,23.2703635402122,0,
394,-73.4716009508202,9.23502213307428,23.2644397974134,0,
395,-72.8627764555049,9.24865409738247,23.2584859084057,0,
396,-72.2535308067432,9.2623465122132,23.2525017966758,0,
397,-71.6438805853523,9.27609910738976,23.2464873857106,0,
398,-71.033842372149,9.28991161273546,23.2404425989969,0,
399,-70.4234327479503,9.3037837580736,23.2343673600214,0,
400,-69.8126682935733,9.31771527322748,23.228261592271,0,
401,-69.201565589835,9.33170588802039,23.2221252236445,0,
402,-68.5901412175525,9.34575533227565,23.215958225704,0,
403,-67.9784117575427,9.35986333581655,23.2097605949361,0,
404,-67.3663937906229,9.3740296284664,23.2035323281184,0,
405,-66.7541038976098,9.38825394004848,23.197273422029,0,
406,-66.1415586593206,9.40253600038612,23.1909838734456,0,
407,-65.5287746565722,9.41687553930259,23.184663679146,0,
408,-64.9157684701819,9.43127228662123,23.178312835908,0,
409,-64.3025566809664,9.4457259721653,23.1719313405096,0,
410,-63.6891558697429,9.46023632575813,23.1655191897285,0,
411,-63.0755826173283,9.474803077223,23.1590763803426,0,
412,-62.4618535045399,9.48942595638323,23.1526029091296,0,
413,-61.8479851121944,9.50410469306211,23.1460987728675,0,
414,-61.2339940211092,9.51883901708295,23.139563968334,0,
415,-60.619896812101,9.53362865826904,23.132998492307,0,
416,-60.0057100659869,9.54847334644369,23.1264023415643,0,
417,-59.3914503635838,9.56337281143019,23.1197755128838,0,
418,-58.7771342857091,9.57832678305186,23.1131180030432,0,
419,-58.1627784131795,9.59333499113198,23.1064298088204,0,
420,-57.5483993268123,9.60839716549386,23.0997109269933,0,
421,-56.9340136074243,9.6235130359608,23.0929613543396,0,
422,-56.3196378358326,9.63868233235611,23.0861810876373,0,
423,-55.705288592854,9.65390478450308,23.079370123664,0,
424,-55.0909824593059,9.66918012222502,23.0725284591977,0,
425,-54.4767360160053,9.68450807534522,23.0656560910162,0,
426,-53.862565843769,9.69988837368699,23.0587530158973,0,
427,-53.2484885234141,9.71532074707363,23.0518192306189,0,
428,-52.6345206357577,9.73080492532843,23.0448547319587,0,
429,-52.0206787616168,9.74634063827471,23.0378595166947,0,
430,-51.4069794818085,9.76192761573576,23.0308335816045,0,
431,-50.7934393771496,9.77756558753488,23.0237769234662,0,
432,-50.1800750284572,9.79325428349537,23.0166895390574,0,
433,-49.5669030165485,9.80899343344054,23.0095714251561,0,
434,-48.9539399222405,9.82478276719368,23.0024225785401,0,
435,-48.3412023263499,9.84062201457811,22.9952429959871,0,
436,-47.7287068096941,9.85651090541711,22.988032674275,0,
437,-47.1164699530901,9.87244916953398,22.9807916101818,0,
438,-46.5045083373548,9.88843653675204,22.973519800485,0,
439,-45.892838543305,9.90447273689459,22.9662172419627,0,
440,-45.2814771517583,9.92055749978491,22.9588839313927,0,
441,-44.6704407435313,9.93669055524631,22.9515198655527,0,
442,-44.059745899441,9.9528716331021,22.9441250412206,0,
443,-43.4494092003048,9.96910046317558,22.9366994551743,0,
444,-42.8394472269394,9.98537677529004,22.9292431041915,0,
445,-42.2298765601619,10.0017002992688,22.9217559850501,0,
446,-41.6207137807892,10.0180707649351,22.9142380945279,0,
447,-41.0119754696387,10.0344879021124,22.9066894294028,0,
448,-40.4036782075271,10.0509514406238,22.8991099864526,0,
449,-39.7958385752714,10.0674611102927,22.8914997624551,0,
450,-39.1884731536889,10.0840166409424,22.8838587541881,0,
451,-38.5815985235963,10.1006177623962,22.8761869584295,0,
452,-37.975231265811,10.1172642044774,22.8684843719572,0,
453,-37.3693879611498,10.1339556970093,22.8607509915488,0,
454,-36.7640851904297,10.1506919698152,22.8529868139824,0,
455,-36.1593395344679,10.1674727527183,22.8451918360356,0,
456,-35.5551675740813,10.1842977755421,22.8373660544864,0,
457,-34.9515858900867,10.2011667681098,22.8295094661125,0,
458,-34.3486110633016,10.2180794602447,22.8216220676918,0,
459,-33.7462596745426,10.2350355817701,22.8137038560022,0,
460,-33.1445483046271,10.2520348625093,22.8057548278214,0,
461,-32.5434935343719,10.2690770322856,22.7977749799272,0,
462,-31.9431119445941,10.2861618209223,22.7897643090976,0,
463,-31.3434201161107,10.3032889582427,22.7817228121104,0,
464,-30.7444346297385,10.3204581740701,22.7736504857433,0,
465,-30.1461720662951,10.3376691982279,22.7655473267742,0,
466,-29.548649006597,10.3549217605392,22.7574133319809,0,
467,-28.9518820314614,10.3722155908274,22.7492484981413,0,
468,-28.3558877217054,10.3895504189159,22.7410528220332,0,
469,-27.760682658146,10.4069259746279,22.7328263004345,0,
470,-27.1662834216001,10.4243419877867,22.7245689301228,0,
471,-26.5727065928847,10.4417981882156,22.7162807078762,0,
472,-25.9799687528171,10.4592943057379,22.7079616304724,0,
473,-25.3880864822141,10.476830070177,22.6996116946892,0,
474,-24.7970763618929,10.494405211356,22.6912308973045,0,
475,-24.2069549726703,10.5120194590984,22.6828192350962,0,
476,-23.6177388953636,10.5296725432274,22.6743767048419,0,
477,-23.0294447107896,10.5473641935663,22.6659033033197,0,
478,-22.4420889997654,10.5650941399385,22.6573990273072,0,
479,-21.8556883431081,10.5828621121672,22.6488638735824,0,
480,-21.2702593216346,10.6006678400757,22.640297838923,0,
481,-20.6858185161618,10.6185110534873,22.6317009201069,0,
482,-20.1023825075072,10.6363914822253,22.6230731139119,0,
483,-19.5199678764873,10.6543088561131,22.6144144171159,0,
484,-18.9385912039196,10.6722629049739,22.6057248264967,0,
485,-18.3582690706207,10.6902533586311,22.5970043388321,0,
486,-17.7790180574079,10.7082799469079,22.5882529508999,0,
487,-17.2008547450981,10.7263423996276,22.579470659478,0,
488,-16.6237957145086,10.7444404466135,22.5706574613442,0,
489,-16.0478562547685,10.762573817689,22.5618133532763,0,
490,-15.4730407750159,10.7807422426773,22.5529383320522,0,
491,-14.899348232366,10.7989454514018,22.5440323944497,0,
492,-14.3267775431661,10.8171831736856,22.5350955372467,0,
493,-13.7553276237637,10.8354551393523,22.5261277572209,0,
494,-13.1849973905062,10.853761078225,22.5171290511501,0,
495,-12.6157857597407,10.872100720127,22.5080994158123,0,
496,-12.047691647815,10.8904737948816,22.4990388479853,0,
497,-11.4807139710761,10.9088800323122,22.4899473444468,0,
498,-10.9148516458716,10.9273191622421,22.4808249019747,0,
499,-10.3501035885489,10.9457909144945,22.4716715173469,0,
500,-9.78646871545528,10.9642950188927,22.4624871873411,0,
501,-9.22394594293818,10.9828312052601,22.4532719087352,0,
502,-8.662534187345,11.0013992034199,22.4440256783071,0,
503,-8.10223236502305,11.0199987431955,22.4347484928345,0,
504,-7.54303939231987,11.0386295544102,22.4254403490953,0,
505,-6.98495418558259,11.0572913668871,22.4161012438674,0,
506,-6.42797566115875,11.0759839104498,22.4067311739285,0,
507,-5.87210273539582,11.0947069149214,22.3973301360564,0,
508,-5.31733432464092,11.1134601101252,22.3878981270291,0,
509,-4.76366934524167,11.1322432258847,22.3784351436243,0,
510,-4.21110671354546,11.1510559920229,22.3689411826199,0,
511,-3.65964534589942,11.1698981383634,22.3594162407938,0,
512,-3.10928415865133,11.1887693947293,22.3498603149236,0,
513,-2.56002206814817,11.2076694909439,22.3402734017873,0,
514,-2.01185799073755,11.2265981568306,22.3306554981627,0,
515,-1.46479084276678,11.2455551222127,22.3210066008277,0,
516,-0.918819540583307,11.2645401169134,22.3113267065599,0,
517,-0.373943000534512,11.2835528707562,22.3016158121374,0,
518,0.169839861032306,11.3025931135641,22.2918739143379,0,
519,0.71253012776969,11.3216605751607,22.2821010099393,0,
520,1.25412888333034,11.3407549853691,22.2722970957193,0,
521,1.7946372113668,11.3598760740127,22.2624621684558,0,
522,2.33405619553177,11.3790235709147,22.2525962249267,0,
523,2.87238691947764,11.3981972058985,22.2426992619097,0,
524,3.40963046685726,11.4173967087874,22.2327712761828,0,
525,3.94578792132318,11.4366218094047,22.2228122645236,0,
526,4.48086036652794,11.4558722375737,22.2128222237102,0,
527,5.01484888612433,11.4751477231176,22.2028011505202,0,
528,5.54775456376479,11.4944479958598,22.1927490417315,0,
529,6.07957848310197,11.5137727856236,22.182665894122,0,
530,6.61032172778871,11.5331218222322,22.1725517044695,0,
531,7.13998538147716,11.5524948355091,22.1624064695518,0,
532,7.66857052782043,11.5718915552774,22.1522301861468,0,
533,8.19607825047081,11.5913117113605,22.1420228510322,0,
534,8.72250963308116,11.6107550335817,22.1317844609859,0,
535,9.24786575930388,11.6302212517643,22.1215150127858,0,
536,9.77214771279166,11.6497100957315,22.1112145032096,0,
537,10.2953565771972,11.6692212953068,22.1008829290352,0,
538,10.817493436173,11.6887545803133,22.0905202870404,0,
539,11.3385593733717,11.7083096805744,22.0801265740031,0,
540,11.858555472446,11.7278863259135,22.0697017867011,0,
541,12.3774828170483,11.7474842461537,22.0592459219122,0,
542,12.8953424908316,11.7671031711184,22.0487589764143,0,
543,13.4121355774482,11.7867428306309,22.0382409469851,0,
544,13.9278631605507,11.8064029545145,22.0276918304026,0,
545,14.442526323792,11.8260832725924,22.0171116234445,0,
546,14.9561261508245,11.8457835146881,22.0065003228886,0,
547,15.4686637253007,11.8655034106248,21.9958579255129,0,
548,15.9801401308736,11.8852426902258,21.9851844280951,0,
549,16.4905564511953,11.9050010833144,21.974479827413,0,
550,16.999913769919,11.9247783197139,21.9637441202446,0,
551,17.5082131706969,11.9445741292475,21.9529773033675,0,
552,18.0154557371817,11.9643882417387,21.9421793735597,0,
553,18.5216425530262,11.9842203870107,21.931350327599,0,
554,19.0267747018828,12.0040702948868,21.9204901622632,0,
555,19.5308532674041,12.0239376951903,21.9095988743302,0,
556,20.0338793332428,12.0438223177445,21.8986764605777,0,
557,20.5358539830515,12.0637238923728,21.8877229177837,0,
558,21.0367783004831,12.0836421488983,21.8767382427259,0,
559,21.5366533691898,12.1035768171444,21.8657224321821,0,
560,22.0354802728242,12.1235276269345,21.8546754829302,0,
561,22.5332600950393,12.1434943080918,21.8435973917481,0,
562,23.0299939194875,12.1634765904396,21.8324881554135,0,
563,23.5256828298213,12.1834742038012,21.8213477707043,0,
564,24.0203279096935,12.2034868779999,21.8101762343984,0,
565,24.5139302427567,12.223514342859,21.7989735432734,0,
566,25.0064909126634,12.2435563282019,21.7877396941074,0,
567,25.4980110030664,12.2636125638517,21.7764746836781,0,
568,25.988491597618,12.2836827796319,21.7651785087633,0,
569,26.4779337799712,12.3037667053658,21.7538511661408,0,
570,26.9663386337784,12.3238640708765,21.7424926525886,0,
571,27.4537072426922,12.3439746059875,21.7311029648844,0,
572,27.9400406903654,12.3640980405219,21.7196820998061,0,
573,28.4253400604504,12.3842341043033,21.7082300541315,0,
574,28.9096064365998,12.4043825271547,21.6967468246384,0,
575,29.3928409024664,12.4245430388996,21.6852324081046,0,
576,29.8750445417027,12.4447153693612,21.673686801308,0,
577,30.3562184379614,12.4648992483628,21.6621100010265,0,
578,30.8363636748952,12.4850944057278,21.6505020040377,0,
579,31.3154813361564,12.5053005712794,21.6388628071197,0,
580,31.7935725053978,12.5255174748409,21.6271924070502,0,
581,32.2706382662722,12.5457448462357,21.615490800607,0,
582,32.7466797024319,12.565982415287,21.6037579845679,0,
583,33.2216978975296,12.5862299118181,21.5919939557109,0,
584,33.6956939352182,12.6064870656524,21.5801987108137,0,
585,34.1686688991499,12.6267536066131,21.5683722466541,0,
586,34.6406238729775,12.6470292645235,21.5565145600101,0,
587,35.1115599403538,12.667313769207,21.5446256476593,0,
588,35.581478184931,12.6876068504869,21.5327055063797,0,
589,36.0503796903619,12.7079082381864,21.5207541329491,0,
590,36.5182655402996,12.7282176621288,21.5087715241453,0,
591,36.9851368183959,12.7485348521375,21.4967576767461,0,
592,37.4509946083039,12.7688595380357,21.4847125875295,0,
593,37.915839993676,12.7891914496468,21.4726362532731,0,
594,38.3796740581652,12.809530316794,21.4605286707548,0,
595,38.8424978854237,12.8298758693007,21.4483898367525,0,
596,39.3043125591042,12.8502278369901,21.436219748044,0,
597,39.7651191628596,12.8705859496855,21.4240184014071,0,
598,40.2249187803421,12.8909499372104,21.4117857936197,0,
599,40.6837124952045,12.9113195293879,21.3995219214595,0,
600,41.1415013910997,12.9316944560413,21.3872267817045,0,
601,41.5982865516798,12.952074446994,21.3749003711324,0,
602,42.0540690605977,12.9724592320692,21.3625426865211,0,
603,42.5088500015062,12.9928485410903,21.3501537246484,0,
604,42.9626304580575,13.0132421038806,21.3377334822921,0,
605,43.4154115139043,13.0336396502633,21.3252819562301,0,
606,43.8671942526994,13.0540409100618,21.3127991432402,0,
607,44.3179797580956,13.0744456130994,21.3002850401003,0,
608,44.7677691137451,13.0948534891993,21.287739643588,0,
609,45.2165634033006,13.1152642681849,21.2751629504814,0,
610,45.664363710415,13.1356776798794,21.2625549575582,0,
611,46.1111711187405,13.1560934541063,21.2499156615962,0,
612,46.55698671193,13.1765113206887,21.2372450593734,0,
613,47.0018115736362,13.1969310094499,21.2245431476674,0,
614,47.4456467875115,13.2173522502133,21.2118099232562,0,
615,47.8884934372085,13.2377747728022,21.1990453829175,0,
616,48.33035260638,13.2581983070399,21.1862495234293,0,
617,48.7712253786784,13.2786225827497,21.1734223415692,0,
618,49.2111128377565,13.2990473297548,21.1605638341153,0,
619,49.6500160672669,13.3194722778786,21.1476739978452,0,
620,50.0879361508621,13.3398971569444,21.1347528295369,0,
621,50.5248741721948,13.3603216967754,21.1218003259681,0,
622,50.9608312149175,13.380745627195,21.1088164839167,0,
623,51.3958083626831,13.4011686780266,21.0958013001605,0,
624,51.829806699144,13.4215905790932,21.0827547714773,0,
625,52.2628273079526,13.4420110602184,21.069676894645,0,
626,52.6948712727621,13.4624298512254,21.0565676664415,0,
627,53.1259396772246,13.4828466819374,21.0434270836445,0,
628,53.5560336049929,13.5032612821779,21.0302551430318,0,
629,53.9851541397198,13.52367338177,21.0170518413813,0,
630,54.4133023650576,13.5440827105371,21.0038171754709,0,
631,54.840479364659,13.5644889983025,20.9905511420783,0,
632,55.2666862221768,13.5848919748895,20.9772537379814,0,
633,55.6919240212634,13.6052913701214,20.9639249599581,0,
634,56.1161938455714,13.6256869138214,20.950564804786,0,
635,56.5394967787537,13.646078335813,20.9371732692432,0,
636,56.9618339044626,13.6664653659194,20.9237503501074,0,
637,57.3832063063508,13.6868477339638,20.9102960441564,0,
638,57.8036150680711,13.7072251697697,20.8968103481681,0,
639,58.223061273276,13.7275974031602,20.8832932589203,0,
640,58.641546005618,13.7479641639588,20.8697447731908,0,
641,59.0590703487498,13.7683251819886,20.8561648877575,0,
642,59.4756353863242,13.7886801870731,20.8425535993981,0,
643,59.8912422019935,13.8090289090354,20.8289109048906,0,
644,60.3058918794105,13.829371077699,20.8152368010128,0,
645,60.7195855022279,13.849706422887,20.8015312845424,0,
646,61.132324154098,13.8700346744229,20.7877943522574,0,
647,61.5441089186736,13.8903555621299,20.7740260009355,0,
648,61.9549408796075,13.9106688158313,20.7602262273546,0,
649,62.3648211205521,13.9309741653503,20.7463950282924,0,
650,62.77375072516,13.9512713405104,20.7325324005269,0,
651,63.181730777084,13.9715600711348,20.7186383408359,0,
652,63.5887623599764,13.9918400870469,20.7047128459972,0,
653,63.9948465574902,14.0121111180698,20.6907559127886,0,
654,64.3999844532777,14.032372894027,20.676767537988,0,
655,64.8041771309918,14.0526251447416,20.6627477183732,0,
656,65.2074256742848,14.0728676000371,20.6486964507219,0,
657,65.6097311668095,14.0930999897367,20.6346137318122,0,
658,66.0110946922187,14.1133220436637,20.6204995584217,0,
659,66.4115173341646,14.1335334916414,20.6063539273283,0,
660,66.8110001763001,14.1537340634932,20.5921768353099,0,
661,67.2095443022778,14.1739234890423,20.5779682791442,0,
662,67.6071507957502,14.194101498112,20.5637282556091,0,
663,68.0038207403699,14.2142678205256,20.5494567614825,0,
664,68.3995552197898,14.2344221861064,20.5351537935421,0,
665,68.7943553176622,14.2545643246778,20.5208193485659,0,
666,69.1882221176397,14.274693966063,20.5064534233315,0,
667,69.5811567033751,14.2948108400853,20.4920560146169,0,
668,69.9731601585212,14.3149146765681,20.4776271191999,0,
669,70.3642335667302,14.3350052053346,20.4631667338583,0,
670,70.7543780116549,14.3550821562081,20.44867485537,0,
671,71.1435945769479,14.375145259012,20.4341514805127,0,
672,71.531884346262,14.3951942435694,20.4195966060643,0,
673,71.9192484032494,14.4152288397039,20.4050102288027,0,
674,72.3056878315633,14.4352487772385,20.3903923455056,0,
675,72.6912037148556,14.4552537859967,20.375742952951,0,
676,73.0757971367794,14.4752435958018,20.3610620479165,0,
677,73.4594691809873,14.4952179364769,20.3463496271802,0,
678,73.8422209311318,14.5151765378455,20.3316056875197,0,
679,74.2240534708654,14.5351191297309,20.3168302257129,0,
680,74.6049678838412,14.5550454419563,20.3020232385377,0,
681,74.9849652537112,14.574955204345,20.2871847227719,0,
682,75.3640466641283,14.5948481467204,20.2723146751932,0,
683,75.7422131987452,14.6147239989057,20.2574130925797,0,
684,76.1194659412145,14.6345824907243,20.2424799717089,0,
685,76.4958059751886,14.6544233519994,20.2275153093589,0,
686,76.8712343843202,14.6742463125544,20.2125191023075,0,
687,77.2457522522622,14.6940511022125,20.1974913473324,0,
688,77.6193606626669,14.7138374507971,20.1824320412114,0,
689,77.992060699187,14.7336050881314,20.1673411807225,0,
690,78.3638534454752,14.7533537440388,20.1522187626435,0,
691,78.7347399851839,14.7730831483425,20.1370647837522,0,
692,79.104721401966,14.7927930308659,20.1218792408263,0,
693,79.4737987794739,14.8124831214323,20.1066621306438,0,
694,79.8419732013603,14.8321531498649,20.0914134499825,0,
695,80.2092457512777,14.851802845987,20.0761331956202,0,
696,80.5756175128791,14.871431939622,20.0608213643347,0,
697,80.9410895698166,14.8910401605932,20.0454779529039,0,
698,81.3056630057431,14.9106272387239,20.0301029581056,0,
699,81.6693389043112,14.9301929038373,20.0146963767177,0,
700,82.0321183491736,14.9497368857567,19.9992582055179,0,
701,82.3940024239828,14.9692589143056,19.983788441284,0,
702,82.7549922123913,14.9887587193071,19.968287080794,0,
703,83.115088798052,15.0082360305845,19.9527541208257,0,
704,83.4742932646173,15.0276905779613,19.9371895581568,0,
705,83.8326066957397,15.0471220912606,19.9215933895652,0,
706,84.1900301750722,15.0665303003057,19.9059656118288,0,
707,84.5465647862672,15.0859149349201,19.8903062217254,0,
708,84.9022116129771,15.1052757249269,19.8746152160327,0,
709,85.2569717388551,15.1246124001495,19.8588925915287,0,
710,85.6108462475532,15.1439246904112,19.8431383449912,0,
711,85.9638362227243,15.1632123255352,19.8273524731979,0,
712,86.3159427480212,15.1824750353449,19.8115349729268,0,
713,86.6671669070961,15.2017125496636,19.7956858409556,0,
714,87.0175097836018,15.2209245983146,19.7798050740622,0,
715,87.366972461191,15.2401109111211,19.7638926690245,0,
716,87.7155560235164,15.2592712179066,19.7479486226201,0,
717,88.0632615542304,15.2784052484942,19.7319729316271,0,
718,88.4100901369854,15.2975127327073,19.7159655928232,0,
719,88.7560428554348,15.3165934003692,19.6999266029862,0,
720,89.1011207932304,15.3356469813032,19.6838559588939,0,
721,89.4453250340252,15.3546732053325,19.6677536573243,0,
722,89.7886566614719,15.3736718022806,19.6516196950551,0,
723,90.1311167592228,15.3926425019706,19.6354540688641,0,
724,90.4727064109307,15.411585034226,19.6192567755293,0,
725,90.8134267002485,15.4304991288699,19.6030278118283,0,
726,91.1532787108282,15.4493845157257,19.5867671745392,0,
727,91.4922635263227,15.4682409246167,19.5704748604396,0,
728,91.8303822303848,15.4870680853662,19.5541508663074,0,
729,92.167635906667,15.5058657277975,19.5377951889204,0,
730,92.5040256388219,15.5246335817339,19.5214078250565,0,
731,92.8395525105021,15.5433713769987,19.5049887714936,0,
732,93.1742176053602,15.5620788434151,19.4885380250093,0,
733,93.5080220070488,15.5807557108066,19.4720555823817,0,
734,93.8409667992205,15.5994017089964,19.4555414403884,0,
735,94.1730530655282,15.6180165678078,19.4389955958073,0,
736,94.5042818896241,15.6366000170641,19.4224180454163,0,
737,94.8346543551611,15.6551517865886,19.4058087859932,0,
738,95.1641715457918,15.6736716062046,19.3891678143158,0,
739,95.4928345451686,15.6921592057354,19.372495127162,0,
740,95.8206444369441,15.7106143150043,19.3557907213095,0,
741,96.1476023047715,15.7290366638346,19.3390545935362,0,
742,96.4737092323027,15.7474259820497,19.32228674062,0,
743,96.7989663031905,15.7657819994727,19.3054871593386,0,
744,97.1233746010879,15.7841044459271,19.28865584647,0,
745,97.4469352096471,15.802393051236,19.2717927987918,0,
746,97.7696492125208,15.8206475452229,19.2548980130821,0,
747,98.0915176933618,15.838867657711,19.2379714861185,0,
748,98.4125417358227,15.8570531185236,19.2210132146789,0,
749,98.7327224235558,15.8752036580825,19.2040231955412,0,
750,99.0520608402139,15.8933190925984,19.1870014254832,0,
751,99.3705580694499,15.9113994126228,19.1699479012827,0,
752,99.6882151949158,15.9294446298598,19.1528626197175,0,
753,100.005033300265,15.9474547560137,19.1357455775655,0,
754,100.321013469149,15.9654298027886,19.1185967716045,0,
755,100.636156785222,15.9833697818889,19.1014161986124,0,
756,100.950464332135,16.0012747050186,19.0842038553669,0,
757,101.263937193542,16.019144583882,19.0669597386459,0,
758,101.576576453094,16.0369794301834,19.0496838452272,0,
759,101.888383194445,16.0547792556268,19.0323761718887,0,
760,102.199358501248,16.0725440719166,19.0150367154081,0,
761,102.509503457154,16.090273890757,18.9976654725634,0,
762,102.818819145816,16.107968723852,18.9802624401323,0,
763,103.127306650888,16.1256285829061,18.9628276148928,0,
764,103.434967056021,16.1432534796233,18.9453609936225,0,
765,103.741801444869,16.1608434257079,18.9278625730993,0,
766,104.047810901083,16.178398432864,18.9103323501011,0,
767,104.352996508317,16.195918512796,18.8927703214058,0,
768,104.657359350223,16.2134036772079,18.875176483791,0,
769,104.960900510454,16.2308539378041,18.8575508340347,0,
770,105.263621072662,16.2482693062887,18.8398933689147,0,
771,105.5655221205,16.2656497943659,18.8222040852089,0,
772,105.866604737621,16.2829954137399,18.8044829796949,0,
773,106.166870007677,16.300306176115,18.7867300491508,0,
774,106.46631901432,16.3175820931954,18.7689452903543,0,
775,106.764952841205,16.3348231766852,18.7511287000832,0,
776,107.062772571982,16.3520294382887,18.7332802751154,0,
777,107.359779290305,16.36920088971,18.7154000122286,0,
778,107.655974079826,16.3863375426535,18.6974879082009,0,
779,107.951358024198,16.4034394088232,18.6795439598099,0,
780,108.245932207074,16.4205064999235,18.6615681638334,0,
781,108.539697712105,16.4375388276585,18.6435605170495,0,
782,108.832655622946,16.4545364037324,18.6255210162357,0,
783,109.124807023248,16.4714992398494,18.6074496581701,0,
784,109.416152996663,16.4884273477138,18.5893464396303,0,
785,109.706694626846,16.5053207390298,18.5712113573944,0,
786,109.996432997448,16.5221794255015,18.55304440824,0,
787,110.285369192121,16.5390034188332,18.534845588945,0,
788,110.573504294519,16.555792730729,18.5166148962872,0,
789,110.860839388294,16.5725473728933,18.4983523270445,0,
790,111.147375557099,16.5892673570301,18.4800578779947,0,
791,111.433113884586,16.6059526948438,18.4617315459157,0,
792,111.718055454408,16.6226033980384,18.4433733275852,0,
793,112.002201350217,16.6392194783183,18.424983219781,0,
794,112.285552655667,16.6558009473877,18.4065612192812,0,
795,112.568110454409,16.6723478169506,18.3881073228633,0,
796,112.849875830097,16.6888600987115,18.3696215273054,0,
797,113.130849866383,16.7053378043743,18.3511038293851,0,
798,113.411033646919,16.7217809456435,18.3325542258804,0,
799,113.690428255359,16.7381895342231,18.3139727135691,0,
800,113.969034775354,16.7545635818175,18.295359289229,0,
801,114.246854290558,16.7709031001307,18.2767139533644,0,
802,114.523887884623,16.787208100867,18.2580368324942,0,
803,114.800136641202,16.8034785957306,18.2393282066934,0,
804,115.075601643947,16.8197145964258,18.2205883653395,0,
805,115.350283976511,16.8359161146567,18.2018175978098,0,
806,115.624184722547,16.8520831621275,18.1830161934819,0,
807,115.897304965706,16.8682157505425,18.164184441733,0,
808,116.169645789643,16.8843138916059,18.1453226319406,0,
809,116.441208278009,16.9003775970218,18.1264310534822,0,
810,116.711993514457,16.9164068784945,18.107509995735,0,
811,116.98200258264,16.9324017477282,18.0885597480767,0,
812,117.251236566209,16.948362216427,18.0695805998846,0,
813,117.519696548819,16.9642882962953,18.050572840536,0,
814,117.787383614121,16.9801799990372,18.0315367594085,0,
815,118.054298845769,16.996037336357,18.0124726458794,0,
816,118.320443327413,17.0118603199587,17.9933807893261,0,
817,118.585818142709,17.0276489615467,17.9742614791261,0,
818,118.850424375307,17.0434032728251,17.9551150046568,0,
819,119.114263108861,17.0591232654982,17.9359416552956,0,
820,119.377335427023,17.0748089512702,17.91674172042,0,
821,119.639642413446,17.0904603418452,17.8975154894072,0,
822,119.901185151782,17.1060774489276,17.8782632516348,0,
823,120.161964725684,17.1216602842214,17.8589852964802,0,
824,120.421982218805,17.1372088594309,17.8396819133207,0,
825,120.681238714798,17.1527231862604,17.8203533915339,0,
826,120.939735297314,17.1682032764139,17.8010000204971,0,
827,121.197473050006,17.1836491415958,17.7816220895877,0,
828,121.454453056528,17.1990607935102,17.7622198881832,0,
829,121.710676400531,17.2144382438614,17.7427937056609,0,
830,121.966144165669,17.2297815043535,17.7233438313983,0,
831,122.220857435594,17.2450905866908,17.7038705547728,0,
832,122.474817293958,17.2603655025775,17.6843741651619,0,
833,122.728024824415,17.2756062637177,17.6648549519429,0,
834,122.980481110616,17.2908128818158,17.6453132044933,0,
835,123.232187236215,17.3059853685759,17.6257492121904,0,
836,123.483144284864,17.3211237357021,17.6061632644117,0,
837,123.733353340215,17.3362279948988,17.5865556505346,0,
838,123.982815485922,17.3512981578701,17.5669266599366,0,
839,124.231531805637,17.3663342363202,17.5472765819949,0,
840,124.479503383012,17.3813362419534,17.5276057060872,0,
841,124.726731301701,17.3963041864739,17.5079143215907,0,
842,124.973216645355,17.4112380815858,17.4882027178829,0,
843,125.218960497627,17.4261379389934,17.4684711843412,0,
844,125.463963942171,17.4410037704009,17.4487200103431,0,
845,125.708228062638,17.4558355875124,17.4289494852659,0,
846,125.951753942681,17.4706334020323,17.409159898487,0,
847,126.194542665953,17.4853972256647,17.389351539384,0,
848,126.436595316107,17.5001270701137,17.3695246973341,0,
849,126.677912976794,17.5148229470838,17.3496796617148,0,
850,126.918496731668,17.5294848682789,17.3298167219036,0,
851,127.158347664382,17.5441128454034,17.3099361672778,0,
852,127.397466858587,17.5587068901615,17.2900382872149,0,
853,127.635855397938,17.5732670142573,17.2701233710922,0,
854,127.873514366085,17.5877932293951,17.2501917082873,0,
855,128.110444846682,17.602285547279,17.2302435881775,0,
856,128.346647923381,17.6167439796134,17.2102793001401,0,
857,128.582124679836,17.6311685381024,17.1902991335528,0,
858,128.816876199697,17.6455592344501,17.1703033777928,0,
859,129.05090356662,17.6599160803609,17.1502923222376,0,
860,129.284207864255,17.6742390875389,17.1302662562646,0,
861,129.516790176255,17.6885282676883,17.1102254692512,0,
862,129.748651586274,17.7027836325134,17.0901702505748,0,
863,129.979793177963,17.7170051937184,17.0701008896129,0,
864,130.210216034976,17.7311929630074,17.0500176757428,0,
865,130.439921240964,17.7453469520846,17.0299208983421,0,
866,130.668909879581,17.7594671726544,17.009810846788,0,
867,130.897183034479,17.7735536364208,16.9896878104581,0,
868,131.124741789311,17.7876063550882,16.9695520787296,0,
869,131.35158722773,17.8016253403606,16.9494039409802,0,
870,131.577720433387,17.8156106039424,16.9292436865871,0,
871,131.803142489936,17.8295621575376,16.9090716049278,0,
872,132.027854481029,17.8434800128507,16.8888879853797,0,
873,132.25185749032,17.8573641815856,16.8686931173202,0,
874,132.475152601459,17.8712146754467,16.8484872901268,0,
875,132.697740898101,17.8850315061382,16.8282707931768,0,
876,132.919623463898,17.8988146853642,16.8080439158477,0,
877,133.140801382501,17.9125642248291,16.7878069475169,0,
878,133.361275737565,17.9262801362369,16.7675601775617,0,
879,133.581047612741,17.9399624312919,16.7473038953597,0,
880,133.800118091683,17.9536111216983,16.7270383902883,0,
881,134.018488258042,17.9672262191603,16.7067639517248,0,
882,134.236159195472,17.9808077353821,16.6864808690466,0,
883,134.453131987624,17.994355682068,16.6661894316313,0,
884,134.669407718153,18.0078700709221,16.6458899288562,0,
885,134.884987470709,18.0213509136487,16.6255826500987,0,
886,135.099872328947,18.0347982219519,16.6052678847362,0,
887,135.314063376518,18.048212007536,16.5849459221462,0,
888,135.527561697075,18.0615922821052,16.564617051706,0,
889,135.740368374271,18.0749390573636,16.5442815627932,0,
890,135.952484491758,18.0882523450156,16.5239397447851,0,
891,136.163911133189,18.1015321567652,16.5035918870591,0,
892,136.374649382217,18.1147785043168,16.4832382789926,0,
893,136.584700322494,18.1279913993745,16.4628792099631,0,
894,136.794065037673,18.1411708536425,16.442514969348,0,
895,137.002744611406,18.1543168788251,16.4221458465246,0,
896,137.210740127346,18.1674294866264,16.4017721308705,0,
897,137.418052669146,18.1805086887506,16.3813941117631,0,
898,137.624683320458,18.1935544969021,16.3610120785796,0,
899,137.830633164935,18.2065669227849,16.3406263206976,0,
900,138.03590328623,18.2195459781033,16.3202371274945,0,
901,138.240494767994,18.2324916745615,16.2998447883477,0,
902,138.444408693882,18.2454040238636,16.2794495926346,0,
903,138.647646147544,18.258283037714,16.2590518297327,0,
904,138.850208212635,18.2711287278169,16.2386517890193,0,
905,139.052095972807,18.2839411058763,16.2182497598718,0,
906,139.253310511711,18.2967201835966,16.1978460316678,0,
907,139.453852913001,18.3094659726819,16.1774408937845,0,
908,139.653724260331,18.3221784848365,16.1570346355995,0,
909,139.85292563735,18.3348577317646,16.1366275464901,0,
910,140.051458127714,18.3475037251703,16.1162199158337,0,
911,140.249322815074,18.3601164767579,16.0958120330078,0,
912,140.446520783083,18.3726959982316,16.0754041873898,0,
913,140.643053115393,18.3852423012956,16.0549966683571,0,
914,140.838920895657,18.3977553976541,16.0345897652871,0,
915,141.034125207529,18.4102352990114,16.0141837675572,0,
916,141.228667134659,18.4226820170715,15.9937789645449,0,
917,141.422547760702,18.4350955635388,15.9733756456276,0,
918,141.615768169309,18.4474759501175,15.9529741001826,0,
919,141.808329444133,18.4598231885116,15.9325746175875,0,
920,142.000232668828,18.4721372904256,15.9121774872195,0,
921,142.191478927044,18.4844182675635,15.8917829984563,0,
922,142.382069302436,18.4966661316297,15.871391440675,0,
923,142.572004878656,18.5088808943282,15.8510031032532,0,
924,142.761286739356,18.5210625673633,15.8306182755684,0,
925,142.949915968188,18.5332111624392,15.8102372469978,0,
926,143.137893648807,18.5453266912601,15.789860306919,0,
927,143.325220864863,18.5574091655303,15.7694877447093,0,
928,143.51189870001,18.5694585969539,15.7491198497461,0,
929,143.697928237901,18.5814749972351,15.7287569114069,0,
930,143.883310562187,18.5934583780782,15.7083992190691,0,
931,144.068046756523,18.6054087511873,15.6880470621102,0,
932,144.252137904559,18.6173261282668,15.6677007299074,0,
933,144.43558508995,18.6292105210207,15.6473605118383,0,
934,144.618389396346,18.6410619411533,15.6270266972803,0,
935,144.800551907402,18.6528804003687,15.6066995756107,0,
936,144.98207370677,18.6646659103713,15.586379436207,0,
937,145.162955878102,18.6764184828653,15.5660665684466,0,
938,145.343199505051,18.6881381295547,15.545761261707,0,
939,145.522805671269,18.6998248621439,15.5254638053655,0,
940,145.70177546041,18.711478692337,15.5051744887995,0,
941,145.880109956125,18.7230996318383,15.4848936013866,0,
942,146.057810242068,18.7346876923519,15.464621432504,0,
943,146.234877401891,18.7462428855821,15.4443582715292,0,
944,146.411312519246,18.7577652232331,15.4241044078397,0,
945,146.587116677787,18.769254717009,15.4038601308128,0,
946,146.762290961166,18.7807113786142,15.383625729826,0,
947,146.936836453035,18.7921352197528,15.3634014942567,0,
948,147.110754237047,18.8035262521289,15.3431877134822,0,
949,147.284045396855,18.8148844874469,15.3229846768801,0,
950,147.456711016111,18.826209937411,15.3027926738277,0,
951,147.628752178468,18.8375026137253,15.2826119937024,0,
952,147.800169967579,18.848762528094,15.2624429258818,0,
953,147.970965467096,18.8599896922214,15.242285759743,0,
954,148.141139760672,18.8711841178116,15.2221407846637,0,
955,148.310693931959,18.882345816569,15.2020082900213,0,
956,148.479629064611,18.8934748001976,15.181888565193,0,
957,148.647946242279,18.9045710804017,15.1617818995564,0,
958,148.815646548616,18.9156346688855,15.1416885824889,0,
959,148.982731067275,18.9266655773533,15.1216089033678,0,
960,149.149200881909,18.9376638175091,15.1015431515707,0,
961,149.315057076169,18.9486294010573,15.0814916164748,0,
962,149.48030073371,18.959562339702,15.0614545874577,0,
963,149.644932938183,18.9704626451475,15.0414323538968,0,
964,149.80895477324,18.981330329098,15.0214252051694,0,
965,149.972367322536,18.9921654032576,15.0014334306531,0,
966,150.135171669721,19.0029678793305,14.9814573197251,0,
967,150.29736889845,19.0137377690211,14.9614971617629,0,
968,150.458960092374,19.0244750840335,14.941553246144,0,
969,150.619946335145,19.0351798360718,14.9216258622457,0,
970,150.780328710418,19.0458520368404,14.9017152994455,0,
971,150.940108301844,19.0564916980434,14.8818218471208,0,
972,151.099286193076,19.067098831385,14.861945794649,0,
973,151.257863467766,19.0776734485695,14.8420874314075,0,
974,151.415841209567,19.088215561301,14.8222470467738,0,
975,151.573220502133,19.0987251812837,14.8024249301252,0,
976,151.730002429114,19.109202320222,14.7826213708392,0,
977,151.886188074165,19.1196469898199,14.7628366582932,0,
978,152.041778520937,19.1300592017817,14.7430710818646,0,
979,152.196774853083,19.1404389678115,14.7233249309308,0,
980,152.351178154257,19.1507862996137,14.7035984948692,0,
981,152.504989508109,19.1611012088924,14.6838920630573,0,
982,152.658209998294,19.1713837073518,14.6642059248725,0,
983,152.810840708464,19.1816338066962,14.6445403696922,0,
984,152.96288272227,19.1918515186296,14.6248956868938,0,
985,153.114337123367,19.2020368548565,14.6052721658547,0,
986,153.265204995406,19.2121898270808,14.5856700959524,0,
987,153.415487422041,19.222310447007,14.5660897665642,0,
988,153.565185486923,19.2323987263391,14.5465314670676,0,
989,153.714300273705,19.2424546767814,14.5269954868401,0,
990,153.862832866041,19.2524783100381,14.5074821152589,0,
991,154.010784347582,19.2624696378134,14.4879916417015,0,
992,154.158155801981,19.2724286718115,14.4685243555454,0,
993,154.304948312891,19.2823554237366,14.4490805461679,0,
994,154.451162963965,19.292249905293,14.4296605029466,0,
995,154.596800845241,19.3021121281847,14.4102645152587,0,
996,154.741863083483,19.3119421041162,14.3908928724817,0,
997,154.886350818565,19.3217398447914,14.3715458639931,0,
998,155.030265190372,19.3315053619148,14.3522237791702,0,
999,155.173607338793,19.3412386671904,14.3329269073905,0,
1000,155.316378403713,19.3509397723225,14.3136555380314,0,
1001,155.458579525021,19.3606086890153,14.2944099604703,0,
1002,155.600211842604,19.370245428973,14.2751904640845,0,
1003,155.741276496349,19.3798500038997,14.2559973382517,0,
1004,155.881774626142,19.3894224254998,14.236830872349,0,
1005,156.021707371873,19.3989627054775,14.2176913557541,0,
1006,156.161075873426,19.4084708555369,14.1985790778442,0,
1007,156.299881270691,19.4179468873822,14.1794943279968,0,
1008,156.438124703553,19.4273908127176,14.1604373955894,0,
1009,156.575807311901,19.4368026432475,14.1414085699993,0,
1010,156.712930235622,19.4461823906758,14.1224081406039,0,
1011,156.849494614601,19.455530066707,14.1034363967807,0,
1012,156.985501588729,19.4648456830452,14.0844936279071,0,
1013,157.12095229789,19.4741292513945,14.0655801233605,0,
1014,157.255847881972,19.4833807834593,14.0466961725183,0,
1015,157.390189480864,19.4926002909437,14.0278420647579,0,
1016,157.523978234451,19.5017877855519,14.0090180894569,0,
1017,157.657215282621,19.5109432789881,13.9902245359924,0,
1018,157.789901765261,19.5200667829566,13.9714616937421,0,
1019,157.922038822259,19.5291583091615,13.9527298520833,0,
1020,158.053627593502,19.5382178693071,13.9340293003934,0,
1021,158.184669218877,19.5472454750976,13.9153603280498,0,
1022,158.31516483827,19.5562411382371,13.89672322443,0,
1023,158.445115591571,19.56520487043,13.8781182789114,0,
1024,158.574522618665,19.5741366833803,13.8595457808713,0,
1025,158.703387059439,19.5830365887923,13.8410060196873,0,
1026,158.831710053782,19.5919045983702,13.8224992847367,0,
1027,158.95949274158,19.6007407238183,13.8040258653969,0,
1028,159.086736262721,19.6095449768407,13.7855860510454,0,
1029,159.213441757092,19.6183173691416,13.7671801310596,0,
1030,159.339610364579,19.6270579124253,13.7488083948168,0,
1031,159.465243225071,19.635766618396,13.7304711316946,0,
1032,159.590341478454,19.6444434987578,13.7121686310703,0,
1033,159.714906264616,19.653088565215,13.6939011823213,0,
1034,159.838938723444,19.6617018294717,13.6756690748252,0,
1035,159.962439994825,19.6702833032323,13.6574725979592,0,
1036,160.085411218646,19.6788329982009,13.6393120411007,0,
1037,160.207853534794,19.6873509260817,13.6211876936273,0,
1038,160.329768083158,19.6958370985789,13.6030998449164,0,
1039,160.451156003623,19.7042915273967,13.5850487843452,0,
1040,160.572018436078,19.7127142242394,13.5670348012913,0,
1041,160.69235652041,19.7211052008111,13.5490581851321,0,
1042,160.812171396505,19.7294644688161,13.5311192252451,0,
1043,160.931464204251,19.7377920399585,13.5132182110075,0,
1044,161.050236083535,19.7460879259427,13.4953554317968,0,
1045,161.168488174244,19.7543521384727,13.4775311769905,0,
1046,161.286221616266,19.7625846892528,13.459745735966,0,
1047,161.403437549488,19.7707855899872,13.4419993981006,0,
1048,161.520137113797,19.7789548523801,13.4242924527719,0,
1049,161.63632144908,19.7870924881357,13.4066251893572,0,
1050,161.751991695225,19.7951985089583,13.3889978972339,0,
1051,161.867148992118,19.803272926552,13.3714108657794,0,
1052,161.981794479648,19.811315752621,13.3538643843713,0,
1053,162.0959292977,19.8193269988696,13.3363587423868,0,
1054,162.209554586163,19.827306677002,13.3188942292034,0,
1055,162.322671484923,19.8352547987223,13.3014711341985,0,
1056,162.435281133869,19.8431713757348,13.2840897467496,0,
1057,162.547384672886,19.8510564197438,13.266750356234,0,
1058,162.658983241863,19.8589099424533,13.2494532520292,0,
1059,162.770077980686,19.8667319555676,13.2321987235125,0,
1060,162.880670029243,19.8745224707909,13.2149870600615,0,
1061,162.990760527421,19.8822814998275,13.1978185510535,0,
1062,163.100350615107,19.8900090543815,13.1806934858659,0,
1063,163.209441432189,19.8977051461572,13.1636121538762,0,
1064,163.318034118553,19.9053697868587,13.1465748444618,0,
1065,163.426129814087,19.9130029881902,13.129581847,0,
1066,163.533729658678,19.9206047618561,13.1126334508684,0,
1067,163.640834792214,19.9281751195604,13.0957299454443,0,
1068,163.747446354581,19.9357140730074,13.0788716201051,0,
1069,163.853565485667,19.9432216339013,13.0620587642283,0,
1070,163.959193325359,19.9506978139464,13.0452916671913,0,
1071,164.064331013543,19.9581426248467,13.0285706183714,0,
1072,164.168979690109,19.9655560783066,13.0118959071462,0,
1073,164.273140494942,19.9729381860302,12.995267822893,0,
1074,164.37681456793,19.9802889597217,12.9786866549892,0,
1075,164.480003048961,19.9876084110854,12.9621526928122,0,
1076,164.58270707792,19.9948965518255,12.9456662257396,0,
1077,164.684927794697,20.0021533936461,12.9292275431487,0,
1078,164.786666339176,20.0093789482515,12.9128369344168,0,
1079,164.887923851247,20.0165732273459,12.8964946889215,0,
1080,164.988701470796,20.0237362426335,12.8802010960401,0,
1081,165.089000337711,20.0308680058185,12.8639564451502,0,
1082,165.188821591878,20.0379685286051,12.8477610256289,0,
1083,165.288166373186,20.0450378226976,12.8316151268539,0,
1084,165.38703582152,20.0520758998,12.8155190382025,0,
1085,165.485431076769,20.0590827716168,12.7994730490521,0,
1086,165.583353278819,20.0660584498519,12.7834774487802,0,
1087,165.680803567558,20.0730029462098,12.7675325267641,0,
1088,165.777783082874,20.0799162723945,12.7516385723813,0,
1089,165.874292964652,20.0867984401102,12.7357958750092,0,
1090,165.970334352781,20.0936494610613,12.7200047240252,0,
1091,166.065908387148,20.1004693469519,12.7042654088068,0,
1092,166.16101620764,20.1072581094861,12.6885782187313,0,
1093,166.255658954144,20.1140157603683,12.6729434431761,0,
1094,166.349837766547,20.1207423113026,12.6573613715188,0,
1095,166.443553784737,20.1274377739933,12.6418322931366,0,
1096,166.5368081486,20.1341021601444,12.6263564974071,0,
1097,166.629601998025,20.1407354814604,12.6109342737076,0,
1098,166.721936472899,20.1473377496453,12.5955659114155,0,
1099,166.813812713107,20.1539089764033,12.5802516999084,0,
1100,166.905231858539,20.1604491734388,12.5649919285634,0,
1101,166.99619504908,20.1669583524558,12.5497868867583,0,
1102,167.086703424619,20.1734365251586,12.5346368638702,0,
1103,167.176758125042,20.1798837032514,12.5195421492767,0,
1104,167.266360290236,20.1862998984385,12.5045030323551,0,
1105,167.35551106009,20.1926851224239,12.4895198024828,0,
1106,167.444211574489,20.199039386912,12.4745927490374,0,
1107,167.532462973322,20.2053627036069,12.4597221613962,0,
1108,167.620266396476,20.2116550842129,12.4449083289366,0,
1109,167.707622983837,20.2179165404341,12.430151541036,0,
1110,167.794533875293,20.2241470839748,12.4154520870719,0,
1111,167.881000210732,20.2303467265392,12.4008102564217,0,
1112,167.96702313004,20.2365154798315,12.3862263384628,0,
1113,168.052603773104,20.2426533555558,12.3717006225725,0,
1114,168.137743279813,20.2487603654165,12.3572333981284,0,
1115,168.222442790053,20.2548365211176,12.3428249545078,0,
1116,168.306703443711,20.2608818343635,12.3284755810882,0,
1117,168.390526380674,20.2668963168583,12.314185567247,0,
1118,168.473912740831,20.2728799803063,12.2999552023615,0,
1119,168.556863664067,20.2788328364116,12.2857847758093,0,
1120,168.639380290271,20.2847548968785,12.2716745769676,0,
1121,168.721463759328,20.2906461734111,12.2576248952141,0,
1122,168.803115211129,20.2965066777137,12.2436360199259,0,
1123,168.884335785557,20.3023364214905,12.2297082404807,0,
1124,168.965126622502,20.3081354164456,12.2158418462558,0,
1125,169.04548886185,20.3139036770252,12.2020371266285,0,
1126,169.125423643489,20.3196412560944,12.1882943709764,0,
1127,169.204932107306,20.3253482348146,12.1746138686768,0,
1128,169.284015393188,20.331024695005,12.1609959091073,0,
1129,169.362674641022,20.3366707184846,12.147440781645,0,
1130,169.440910990695,20.3422863870726,12.1339487756676,0,
1131,169.518725582096,20.3478717825881,12.1205201805524,0,
1132,169.59611955511,20.3534269868501,12.1071552856768,0,
1133,169.673094049625,20.3589520816779,12.0938543804183,0,
1134,169.749650205529,20.3644471488906,12.0806177541542,0,
1135,169.825789162708,20.3699122703071,12.067445696262,0,
1136,169.901512061051,20.3753475277467,12.0543384961191,0,
1137,169.976820040443,20.3807530030286,12.041296443103,0,
1138,170.051714240773,20.3861287779716,12.0283198265909,0,
1139,170.126195801927,20.3914749343951,12.0154089359604,0,
1140,170.200265863792,20.3967915541181,12.0025640605889,0,
1141,170.273925566257,20.4020787189598,11.9897854898537,0,
1142,170.347176049208,20.4073365107392,11.9770735131324,0,
1143,170.420018452533,20.4125650112754,11.9644284198023,0,
1144,170.492453916118,20.4177643023877,11.9518504992408,0,
1145,170.564483579852,20.422934465895,11.9393400408254,0,
1146,170.636108583619,20.4280755836165,11.9268973339334,0,
1147,170.70733006731,20.4331877373714,11.9145226679423,0,
1148,170.77814917081,20.4382710089787,11.9022163322295,0,
1149,170.848567034007,20.4433254802576,11.8899786161725,0,
1150,170.918584796788,20.4483512330271,11.8778098091485,0,
1151,170.98820359904,20.4533483491064,11.8657101711874,0,
1152,171.05742458065,20.4583169103146,11.8536796718998,0,
1153,171.126248881506,20.4632569984708,11.8417181151122,0,
1154,171.194677641496,20.4681686953942,11.8298253027141,0,
1155,171.262712000505,20.4730520829038,11.8180010365949,0,
1156,171.330353098421,20.4779072428187,11.8062451186439,0,
1157,171.397602075132,20.4827342569582,11.7945573507505,0,
1158,171.464460070525,20.4875332071412,11.782937534804,0,
1159,171.530928224487,20.4923041751869,11.7713854726938,0,
1160,171.597007676905,20.4970472429144,11.7599009663094,0,
1161,171.662699567667,20.5017624921429,11.7484838175399,0,
1162,171.728005036659,20.5064500046914,11.7371338282749,0,
1163,171.79292522377,20.5111098623791,11.7258508004037,0,
1164,171.857461268885,20.515742147025,11.7146345358157,0,
1165,171.921614311893,20.5203469404484,11.7034848364001,0,
1166,171.98538549268,20.5249243244682,11.6924015040464,0,
1167,172.048775951135,20.5294743809037,11.6813843406439,0,
1168,172.111786827143,20.5339971915739,11.6704331480822,0,
1169,172.174419260593,20.5384928382979,11.6595477282504,0,
1170,172.236674391371,20.542961402895,11.6487278830379,0,
1171,172.298553359365,20.5474029671841,11.6379734143342,0,
1172,172.360057304461,20.5518176129844,11.6272841240286,0,
1173,172.421187366549,20.556205422115,11.6166598140104,0,
1174,172.481944685513,20.5605664763951,11.6061002861691,0,
1175,172.542330401242,20.5649008576436,11.595605342394,0,
1176,172.602345653623,20.5692086476799,11.5851747845744,0,
1177,172.661991582543,20.5734899283229,11.5748084145998,0,
1178,172.721269327889,20.5777447813918,11.5645060343594,0,
1179,172.780180029549,20.5819732887057,11.5542674457427,0,
1180,172.838724827409,20.5861755320837,11.544092450639,0,
1181,172.896904861358,20.5903515933449,11.5339808509378,0,
1182,172.954721271282,20.5945015543085,11.5239324485283,0,
1183,173.012175197067,20.5986254967936,11.5139470453,0,
1184,173.069267778604,20.6027235026192,11.5040244431421,0,
1185,173.126000155776,20.6067956536045,11.4941644439441,0,
1186,173.182373468473,20.6108420315686,11.4843668495954,0,
1187,173.238388856581,20.6148627183307,11.4746314619853,0,
1188,173.294047459988,20.6188577957098,11.4649580830031,0,
1189,173.34935041858,20.622827345525,11.4553465145383,0,
1190,173.404298872245,20.6267714495955,11.4457965584802,0,
1191,173.458893960871,20.6306901897403,11.4363080167181,0,
1192,173.513136824344,20.6345836477787,11.4268806911415,0,
1193,173.567028602552,20.6384519055297,11.4175143836397,0,
1194,173.620570435382,20.6422950448124,11.4082088961021,0,
1195,173.673763462721,20.6461131474459,11.3989640304181,0,
1196,173.726608824456,20.6499062952494,11.3897795884769,0,
1197,173.779107660475,20.6536745700419,11.3806553721681,0,
1198,173.831261110664,20.6574180536427,11.3715911833808,0,
1199,173.883070314912,20.6611368278707,11.3625868240046,0,
1200,173.934536413105,20.6648309745452,11.3536420959288,0,
1201,173.98566054513,20.6685005754852,11.3447568010427,0,
1202,174.036443850875,20.6721457125098,11.3359307412358,0,
1203,174.086887470227,20.6757664674382,11.3271637183973,0,
1204,174.136992543073,20.6793629220895,11.3184555344166,0,
1205,174.186760209301,20.6829351582827,11.3098059911833,0,
1206,174.236191608797,20.6864832578371,11.3012148905865,0,
1207,174.285287881449,20.6900073025716,11.2926820345156,0,
1208,174.334050167144,20.6935073743055,11.2842072248601,0,
1209,174.382479605769,20.6969835548579,11.2757902635092,0,
1210,174.430577337212,20.7004359260478,11.2674309523524,0,
1211,174.47834450136,20.7038645696944,11.2591290932791,0,
1212,174.525782238099,20.7072695676168,11.2508844881785,0,
1213,174.572891687318,20.7106510016341,11.2426969389401,0,
1214,174.619673988903,20.7140089535654,11.2345662474532,0,
1215,174.666130282742,20.7173435052298,11.2264922156072,0,
1216,174.712261708721,20.7206547384465,11.2184746452915,0,
1217,174.758069406729,20.7239427350346,11.2105133383954,0,
1218,174.803554516652,20.7272075768132,11.2026080968082,0,
1219,174.848718178377,20.7304493456013,11.1947587224195,0,
1220,174.893561531793,20.7336681232182,11.1869650171186,0,
1221,174.938085716785,20.7368639914828,11.1792267827947,0,
1222,174.982291873241,20.7400370322145,11.1715438213372,0,
1223,175.026181141049,20.7431873272322,11.1639159346356,0,
1224,175.069754660095,20.746314958355,11.1563429245792,0,
1225,175.113013570268,20.7494200074022,11.1488245930575,0,
1226,175.155959011454,20.7525025561927,11.1413607419595,0,
1227,175.198592123539,20.7555626865458,11.133951173175,0,
1228,175.240914046413,20.7586004802805,11.1265956885931,0,
1229,175.282925919961,20.7616160192159,11.1192940901031,0,
1230,175.324628884071,20.7646093851712,11.1120461795947,0,
1231,175.366024078631,20.7675806599655,11.104851758957,0,
1232,175.407112643527,20.7705299254178,11.0977106300795,0,
1233,175.447895718646,20.7734572633474,11.0906225948515,0,
1234,175.488374443877,20.7763627555733,11.0835874551623,0,
1235,175.528549959105,20.7792464839146,11.0766050129014,0,
1236,175.568423404219,20.7821085301905,11.0696750699581,0,
1237,175.607995919106,20.78494897622,11.0627974282218,0,
1238,175.647268643652,20.7877679038224,11.0559718895818,0,
1239,175.686242717745,20.7905653948166,11.0491982559276,0,
1240,175.724919281273,20.7933415310218,11.0424763291484,0,
1241,175.763299474122,20.7960963942572,11.0358059111337,0,
1242,175.80138443618,20.7988300663418,11.0291868037727,0,
1243,175.839175307334,20.8015426290947,11.022618808955,0,
1244,175.876673227471,20.8042341643351,11.0161017285698,0,
1245,175.913879336478,20.8069047538821,11.0096353645066,0,
1246,175.950794774243,20.8095544795548,11.0032195186546,0,
1247,175.987420680653,20.8121834231723,10.9968539929033,0,
1248,176.023758195595,20.8147916665538,10.9905385891421,0,
1249,176.059808458956,20.8173792915183,10.9842731092602,0,
1250,176.095572610623,20.8199463798849,10.978057355147,0,
1251,176.131051790485,20.8224930134728,10.971891128692,0,
1252,176.166247138427,20.8250192741012,10.9657742317845,0,
1253,176.201159794337,20.827525243589,10.9597064663139,0,
1254,176.235790898103,20.8300110037554,10.9536876341694,0,
1255,176.270141589612,20.8324766364196,10.9477175372406,0,
1256,176.304213008751,20.8349222234006,10.9417959774167,0,
1257,176.338006295406,20.8373478465176,10.9359227565872,0,
1258,176.371522589465,20.8397535875896,10.9300976766413,0,
1259,176.404763030817,20.8421395284359,10.9243205394686,0,
1260,176.437728759347,20.8445057508754,10.9185911469582,0,
1261,176.470420914943,20.8468523367274,10.9129093009997,0,
1262,176.502840637492,20.8491793678109,10.9072748034823,0,
1263,176.534989066882,20.8514869259451,10.9016874562955,0,
1264,176.566867342999,20.853775092949,10.8961470613285,0,
1265,176.598476605731,20.8560439506418,10.8906534204708,0,
1266,176.629817994966,20.8582935808427,10.8852063356118,0,
1267,176.66089265059,20.8605240653706,10.8798056086407,0,
1268,176.69170171249,20.8627354860447,10.8744510414471,0,
1269,176.722246320554,20.8649279246842,10.8691424359202,0,
1270,176.752527614669,20.8671014631082,10.8638795939494,0,
1271,176.782546734722,20.8692561831357,10.858662317424,0,
1272,176.812304820601,20.871392166586,10.8534904082336,0,
1273,176.841803012193,20.873509495278,10.8483636682673,0,
1274,176.871042449384,20.8756082510309,10.8432818994146,0,
1275,176.900024272062,20.8776885156639,10.8382449035649,0,
1276,176.928749620115,20.879750370996,10.8332524826074,0,
1277,176.95721963343,20.8817938988464,10.8283044384316,0,
1278,176.985435451892,20.8838191810341,10.8234005729269,0,
1279,177.013398215392,20.8858262993783,10.8185406879826,0,
1280,177.041109063815,20.8878153356982,10.8137245854881,0,
1281,177.068569137048,20.8897863718128,10.8089520673327,0,
1282,177.095779574978,20.8917394895412,10.8042229354058,0,
1283,177.122741517494,20.8936747707025,10.7995369915969,0,
1284,177.149456104482,20.8955922971159,10.7948940377952,0,
1285,177.175924475829,20.8974921506005,10.7902938758901,0,
1286,177.202147771423,20.8993744129754,10.785736307771,0,
1287,177.22812713115,20.9012391660597,10.7812211353272,0,
1288,177.253863694899,20.9030864916726,10.7767481604482,0,
1289,177.279358602556,20.904916471633,10.7723171850232,0,
1290,177.304612994009,20.9067291877603,10.7679280109418,0,
1291,177.329628009144,20.9085247218734,10.7635804400931,0,
1292,177.354404787849,20.9103031557915,10.7592742743666,0,
1293,177.378944470012,20.9120645713336,10.7550093156517,0,
1294,177.403248195518,20.913809050319,10.7507853658377,0,
1295,177.427317104257,20.9155366745668,10.746602226814,0,
1296,177.451152336114,20.9172475258959,10.74245970047,0,
1297,177.474755030978,20.9189416861257,10.7383575886951,0,
1298,177.498126328734,20.9206192370751,10.7342956933785,0,
1299,177.521267369271,20.9222802605633,10.7302738164097,0,
1300,177.544179292476,20.9239248384094,10.726291759678,0,
1301,177.566863238236,20.9255530524325,10.7223493250728,0,
1302,177.589320346439,20.9271649844517,10.7184463144835,0,
1303,177.61155175697,20.9287607162862,10.7145825297994,0,
1304,177.633558609719,20.9303403297551,10.7107577729098,0,
1305,177.655342044571,20.9319039066774,10.7069718457043,0,
1306,177.676903201414,20.9334515288724,10.7032245500722,0,
1307,177.698243220136,20.934983278159,10.6995156879027,0,
1308,177.719363240623,20.9364992363565,10.6958450610853,0,
1309,177.740264402763,20.9379994852839,10.6922124715093,0,
1310,177.760947846443,20.9394841067604,10.6886177210641,0,
1311,177.78141471155,20.940953182605,10.6850606116392,0,
1312,177.801666137972,20.9424067946369,10.6815409451237,0,
1313,177.821703265595,20.9438450246752,10.6780585234073,0,
1314,177.841527234308,20.945267954539,10.674613148379,0,
1315,177.861139183996,20.9466756660475,10.6712046219284,0,
1316,177.880540254548,20.9480682410197,10.6678327459448,0,
1317,177.89973158585,20.9494457612747,10.6644973223175,0,
1318,177.91871431779,20.9508083086317,10.6611981529361,0,
1319,177.937489590255,20.9521559649099,10.6579350396897,0,
1320,177.956058543133,20.9534888119282,10.6547077844678,0,
1321,177.97442231631,20.9548069315058,10.6515161891598,0,
1322,177.992582049674,20.9561104054618,10.6483600556551,0,
1323,178.010538883111,20.9573993156155,10.6452391858428,0,
1324,178.02829395651,20.9586737437857,10.6421533816125,0,
1325,178.045848409757,20.9599337717918,10.6391024448536,0,
1326,178.06320338274,20.9611794814527,10.6360861774554,0,
1327,178.080360015346,20.9624109545877,10.6331043813072,0,
1328,178.097319447462,20.9636282730157,10.6301568582984,0,
1329,178.114082818975,20.964831518556,10.6272434103184,0,
1330,178.130651269772,20.9660207730277,10.6243638392565,0,
1331,178.147025939742,20.9671961182498,10.6215179470022,0,
1332,178.163207968769,20.9683576360415,10.6187055354449,0,
1333,178.179198496744,20.9695054082219,10.6159264064737,0,
1334,178.194998663552,20.9706395166101,10.6131803619782,0,
1335,178.21060960908,20.9717600430253,10.6104672038476,0,
1336,178.226032473217,20.9728670692864,10.6077867339715,0,
1337,178.241268395848,20.9739606772128,10.6051387542391,0,
1338,178.256318516862,20.9750409486234,10.6025230665397,0,
1339,178.271183976145,20.9761079653374,10.5999394727629,0,
1340,178.285865913585,20.9771618091739,10.5973877747978,0,
1341,178.300365469069,20.978202561952,10.594867774534,0,
1342,178.314683782484,20.9792303054908,10.5923792738607,0,
1343,178.328821993718,20.9802451216095,10.5899220746673,0,
1344,178.342781242657,20.9812470921271,10.5874959788433,0,
1345,178.35656266919,20.9822362988628,10.5851007882779,0,
1346,178.370167413202,20.9832128236357,10.5827363048606,0,
1347,178.383596614582,20.984176748265,10.5804023304807,0,
1348,178.396851413216,20.9851281545695,10.5780986670276,0,
1349,178.409932948992,20.9860671243687,10.5758251163905,0,
1350,178.422842361797,20.9869937394815,10.573581480459,0,
1351,178.435580791518,20.9879080817271,10.5713675611224,0,
1352,178.448149378043,20.9888102329246,10.56918316027,0,
1353,178.460549261259,20.989700274893,10.5670280797912,0,
1354,178.472781581052,20.9905782894516,10.5649021215754,0,
1355,178.48484747731,20.9914443584194,10.5628050875119,0,
1356,178.496748089922,20.9922985636155,10.5607367794902,0,
1357,178.508484558772,20.9931409868591,10.5586969993996,0,
1358,178.520058023749,20.9939717099692,10.5566855491293,0,
1359,178.53146962474,20.994790814765,10.5547022305689,0,
1360,178.542720501633,20.9955983830656,10.5527468456077,0,
1361,178.553811794314,20.9963944966902,10.5508191961351,0,
1362,178.564744642671,20.9971792374578,10.5489190840404,0,
1363,178.575520186591,20.9979526871875,10.5470463112129,0,
1364,178.586139565961,20.9987149276985,10.5452006795421,0,
1365,178.596603920668,20.9994660408098,10.5433819909173,0,
1366,178.6069143906,21.0002061083406,10.5415900472279,0,
1367,178.617072115643,21.0009352121101,10.5398246503632,0,
1368,178.627078235686,21.0016534339372,10.5380856022127,0,
1369,178.636933890615,21.0023608556412,10.5363727046656,0,
1370,178.646640220318,21.0030575590411,10.5346857596114,0,
1371,178.656198364681,21.0037436259561,10.5330245689395,0,
1372,178.665609463593,21.0044191382053,10.5313889345391,0,
1373,178.674874656939,21.0050841776078,10.5297786582997,0,
1374,178.683995084608,21.0057388259826,10.5281935421107,0,
1375,178.692971886487,21.006383165149,10.5266333878613,0,
1376,178.701806202462,21.007017276926,10.525097997441,0,
1377,178.710499172422,21.0076412431328,10.5235871727391,0,
1378,178.719051936252,21.0082551455884,10.5221007156451,0,
1379,178.727465633842,21.0088590661121,10.5206384280481,0,
1380,178.735741405077,21.0094530865228,10.5192001118377,0,
1381,178.743880389845,21.0100372886398,10.5177855689032,0,
1382,178.751883728034,21.010611754282,10.516394601134,0,
1383,178.759752559529,21.0111765652687,10.5150270104194,0,
1384,178.76748802422,21.011731803419,10.5136825986488,0,
1385,178.775091261993,21.0122775505519,10.5123611677116,0,
1386,178.782563412734,21.0128138884866,10.5110625194972,0,
1387,178.789905616332,21.0133408990422,10.5097864558947,0,
1388,178.797119012674,21.0138586640379,10.5085327787938,0,
1389,178.804204741645,21.0143672652927,10.5073012900838,0,
1390,178.811163943135,21.0148667846256,10.506091791654,0,
1391,178.817997757031,21.015357303856,10.5049040853937,0,
1392,178.824707323219,21.0158389048029,10.5037379731923,0,
1393,178.831293781587,21.0163116692853,10.5025932569393,0,
1394,178.837758272021,21.0167756791225,10.5014697385239,0,
1395,178.84410193441,21.0172310161334,10.5003672198356,0,
1396,178.85032590864,21.0176777621373,10.4992855027638,0,
1397,178.856431334599,21.0181159989533,10.4982243891977,0,
1398,178.862419352173,21.0185458084004,10.4971836810267,0,
1399,178.86829110125,21.0189672722978,10.4961631801403,0,
1400,178.874047721719,21.0193804724646,10.4951626884277,0,
1401,178.879690353464,21.0197854907199,10.4941820077784,0,
1402,178.885220136374,21.0201824088828,10.4932209400817,0,
1403,178.890638210335,21.0205713087724,10.492279287227,0,
1404,178.895945715237,21.0209522722079,10.4913568511035,0,
1405,178.901143790964,21.0213253810084,10.4904534336009,0,
1406,178.906233577405,21.021690716993,10.4895688366084,0,
1407,178.911216214447,21.0220483619808,10.4887028620153,0,
1408,178.916092841977,21.0223983977908,10.487855311711,0,
1409,178.920864599883,21.0227409062423,10.4870259875849,0,
1410,178.92553262805,21.0230759691544,10.4862146915265,0,
1411,178.930098066368,21.0234036683461,10.4854212254248,0,
1412,178.934562054723,21.0237240856366,10.4846453911695,0,
1413,178.938925733001,21.024037302845,10.4838869906498,0,
1414,178.943190241092,21.0243434017904,10.4831458257553,0,
1415,178.94735671888,21.0246424642919,10.482421698375,0,
1416,178.951426306255,21.0249345721686,10.4817144103985,0,
1417,178.955400143103,21.0252198072397,10.4810237637152,0,
1418,178.959279369311,21.0254982513242,10.4803495602143,0,
1419,178.963065124766,21.0257699862413,10.4796916017854,0,
1420,178.966758549357,21.0260350938101,10.4790496903176,0,
1421,178.970360782969,21.0262936558497,10.4784236277005,0,
1422,178.973872965491,21.0265457541793,10.4778132158234,0,
1423,178.977296236809,21.0267914706178,10.4772182565755,0,
1424,178.980631736811,21.0270308869846,10.4766385518464,0,
1425,178.983880605383,21.0272640850986,10.4760739035253,0,
1426,178.987043982414,21.027491146779,10.4755241135017,0,
1427,178.99012300779,21.0277121538448,10.4749889836649,0,
1428,178.993118821399,21.0279271881153,10.4744683159042,0,
1429,178.996032563127,21.0281363314095,10.4739619121091,0,
1430,178.998865372863,21.0283396655466,10.4734695741689,0,
1431,179.001618390492,21.0285372723456,10.472991103973,0,
1432,179.004292755904,21.0287292336257,10.4725263034107,0,
1433,179.006889608984,21.028915631206,10.4720749743714,0,
1434,179.00941008962,21.0290965469055,10.4716369187445,0,
1435,179.011855337698,21.0292720625435,10.4712119384194,0,
1436,179.014226493108,21.029442259939,10.4707998352853,0,
1437,179.016524695735,21.0296072209112,10.4704004112318,0,
1438,179.018751085467,21.0297670272791,10.4700134681481,0,
1439,179.02090680219,21.0299217608619,10.4696388079235,0,
1440,179.022992985793,21.0300715034787,10.4692762324476,0,
1441,179.025010776163,21.0302163369486,10.4689255436097,0,
1442,179.026961313186,21.0303563430907,10.468586543299,0,
1443,179.028845736751,21.0304916037242,10.4682590334051,0,
1444,179.030665186743,21.0306222006681,10.4679428158171,0,
1445,179.032420803051,21.0307482157416,10.4676376924247,0,
1446,179.034113725561,21.0308697307637,10.4673434651169,0,
1447,179.035745094162,21.0309868275537,10.4670599357834,0,
1448,179.037316048739,21.0310995879305,10.4667869063134,0,
1449,179.03882772918,21.0312080937134,10.4665241785963,0,
1450,179.040281275374,21.0313124267214,10.4662715545214,0,
1451,179.041677827205,21.0314126687737,10.4660288359781,0,
1452,179.043018524563,21.0315089016894,10.465795824856,0,
1453,179.044304507334,21.0316012072875,10.465572323044,0,
1454,179.045536915406,21.0316896673872,10.4653581324318,0,
1455,179.046716888665,21.0317743638077,10.4651530549087,0,
1456,179.047845566999,21.0318553783679,10.4649568923641,0,
1457,179.048924090295,21.0319327928872,10.4647694466873,0,
1458,179.049953598441,21.0320066891845,10.4645905197677,0,
1459,179.050935231323,21.0320771490789,10.4644199134947,0,
1460,179.051870128828,21.0321442543896,10.4642574297576,0,
1461,179.052759430845,21.0322080869358,10.4641028704459,0,
1462,179.05360427726,21.0322687285365,10.4639560374487,0,
1463,179.054405807961,21.0323262610108,10.4638167326556,0,
1464,179.055165162834,21.0323807661778,10.463684757956,0,
1465,179.055883481767,21.0324323258567,10.463559915239,0,
1466,179.056561904647,21.0324810218666,10.4634420063943,0,
1467,179.057201571361,21.0325269360266,10.4633308333109,0,
1468,179.057803621797,21.0325701501557,10.4632261978786,0,
1469,179.058369195842,21.0326107460732,10.4631279019864,0,
1470,179.058899433383,21.0326488055982,10.4630357475239,0,
1471,179.059395474307,21.0326844105497,10.4629495363803,0,
1472,179.059858458502,21.0327176427469,10.4628690704451,0,
1473,179.060289525854,21.0327485840088,10.4627941516075,0,
1474,179.060689816251,21.0327773161547,10.4627245817571,0,
1475,179.061060469581,21.0328039210036,10.4626601627831,0,
1476,179.061402625729,21.0328284803746,10.4626006965749,0,
1477,179.061717424584,21.0328510760868,10.4625459850219,0,
1478,179.062006006034,21.0328717899594,10.4624958300135,0,
1479,179.062269509964,21.0328907038114,10.462450033439,0,
1480,179.062509076262,21.0329078994621,10.4624083971876,0,
1481,179.062725844816,21.0329234587304,10.462370723149,0,
1482,179.062920955513,21.0329374634356,10.4623368132124,0,
1483,179.063095548239,21.0329499953967,10.4623064692672,0,
1484,179.063250762883,21.0329611364329,10.4622794932027,0,
1485,179.063387739332,21.0329709683632,10.4622556869084,0,
1486,179.063507617472,21.0329795730067,10.4622348522736,0,
1487,179.06361153719,21.0329870321827,10.4622167911876,0,
1488,179.063700638375,21.0329934277102,10.4622013055398,0,
1489,179.063776060913,21.0329988414083,10.4621881972197,0,
1490,179.063838944691,21.0330033550961,10.4621772681164,0,
1491,179.063890429598,21.0330070505929,10.4621683201195,0,
1492,179.063931655519,21.0330100097175,10.4621611551183,0,
1493,179.063963762343,21.0330123142892,10.4621555750021,0,
1494,179.063987889956,21.0330140461271,10.4621513816604,0,
1495,179.064005178245,21.0330152870504,10.4621483769825,0,
1496,179.064016767099,21.0330161188781,10.4621463628577,0,
1497,179.064023796403,21.0330166234293,10.4621451411755,0,
1498,179.064027406046,21.0330168825231,10.4621445138252,0,
1499,179.064028735915,21.0330169779788,10.4621442826961,0,
